; generated by Slic3r 1.3.0 on 2021-11-20 at 09:10:14

; external perimeters extrusion width = 0.44mm (2.38mm^3/s)
; perimeters extrusion width = 0.56mm (6.20mm^3/s)
; infill extrusion width = 0.50mm (7.31mm^3/s)
; solid infill extrusion width = 0.56mm (2.07mm^3/s)
; top infill extrusion width = 0.25mm (0.62mm^3/s)

M107
M190 S70 ; set bed temperature and wait for it to be reached
M104 S230 ; set temperature
G28 ; Home
G1 Z5 F5000 ; lift nozzle
G1 X1 Y1 F2000

; Filament gcode

M109 S230 ; set temperature and wait for it to be reached
G21 ; set units to millimeters
G90 ; use absolute coordinates
M82 ; use absolute distances for extrusion
G92 E0
G1 Z0.400 F7800.000
G1 E-2.00000 F2400.00000
G92 E0
G1 X84.543 Y92.957 F7800.000
G1 E2.00000 F2400.00000
G1 F1800
G1 X86.318 Y91.329 E2.17391
G1 X88.526 Y90.366 E2.34783
G1 X90.300 Y90.148 E2.47685
G1 X110.000 Y90.148 E3.89921
G1 X112.376 Y90.545 E4.07313
G1 X114.493 Y91.693 E4.24704
G1 X116.121 Y93.468 E4.42095
G1 X117.084 Y95.676 E4.59486
G1 X117.302 Y97.450 E4.72389
G1 X117.302 Y102.850 E5.11378
G1 X116.905 Y105.226 E5.28769
G1 X115.757 Y107.343 E5.46160
G1 X113.982 Y108.971 E5.63551
G1 X111.774 Y109.934 E5.80943
G1 X110.000 Y110.152 E5.93846
G1 X90.300 Y110.152 E7.36081
G1 X87.924 Y109.755 E7.53473
G1 X85.807 Y108.607 E7.70864
G1 X84.179 Y106.832 E7.88255
G1 X83.216 Y104.624 E8.05647
G1 X82.998 Y102.850 E8.18549
G1 X82.998 Y97.450 E8.57538
G1 X83.395 Y95.074 E8.74929
G1 X84.515 Y93.010 E8.91887
G1 X84.974 Y93.113 F7800.000
G1 F1800
G1 X86.735 Y91.579 E9.08750
G1 X88.909 Y90.724 E9.25613
G1 X90.300 Y90.582 E9.35711
G1 X110.000 Y90.582 E10.77947
G1 X112.302 Y90.979 E10.94809
G1 X114.337 Y92.124 E11.11672
G1 X115.871 Y93.885 E11.28535
G1 X116.726 Y96.059 E11.45397
G1 X116.868 Y97.450 E11.55496
G1 X116.868 Y102.850 E11.94484
G1 X116.471 Y105.152 E12.11347
G1 X115.326 Y107.187 E12.28209
G1 X113.565 Y108.721 E12.45072
G1 X111.391 Y109.576 E12.61935
G1 X110.000 Y109.718 E12.72033
G1 X90.300 Y109.718 E14.14269
G1 X87.998 Y109.321 E14.31132
G1 X85.963 Y108.176 E14.47994
G1 X84.429 Y106.415 E14.64857
G1 X83.574 Y104.241 E14.81720
G1 X83.432 Y102.850 E14.91818
G1 X83.432 Y97.450 E15.30806
G1 X83.829 Y95.148 E15.47669
G1 X84.945 Y93.165 E15.64098
G1 X85.404 Y93.275 F7800.000
G1 F1800
G1 X87.150 Y91.840 E15.80415
G1 X90.300 Y91.016 E16.03923
G1 X110.000 Y91.016 E17.46159
G1 X112.225 Y91.413 E17.62476
G1 X114.175 Y92.554 E17.78793
G1 X115.610 Y94.300 E17.95110
G1 X116.434 Y97.450 E18.18617
G1 X116.434 Y102.850 E18.57605
G1 X116.037 Y105.075 E18.73922
G1 X114.896 Y107.025 E18.90239
G1 X113.150 Y108.460 E19.06556
G1 X110.000 Y109.284 E19.30064
G1 X90.300 Y109.284 E20.72299
G1 X88.075 Y108.887 E20.88616
G1 X86.125 Y107.746 E21.04933
G1 X84.690 Y106.000 E21.21250
G1 X83.866 Y102.850 E21.44758
G1 X83.866 Y97.450 E21.83746
G1 X84.263 Y95.225 E22.00063
G1 X85.374 Y93.327 E22.15947
G1 E20.15947 F2400.00000
G92 E0
G1 X109.740 Y102.590 F7800.000
G1 E2.00000 F2400.00000
G1 F1800
G1 X90.560 Y102.590 E3.38481
G1 X90.560 Y97.710 E3.73716
G1 X109.740 Y97.710 E5.12197
G1 X109.740 Y102.530 E5.46998
G1 X109.341 Y102.557 F7800.000
G1 X109.306 Y102.156 F7800.000
G1 F1800
G1 X90.994 Y102.156 E6.79210
G1 X90.994 Y98.144 E7.08175
G1 X109.306 Y98.144 E8.40387
G1 X109.306 Y102.096 E8.68918
G1 X108.872 Y101.722 F7800.000
G1 F1800
G1 X91.428 Y101.722 E9.94861
G1 X91.428 Y98.578 E10.17557
G1 X108.872 Y98.578 E11.43499
G1 X108.872 Y101.662 E11.65762
G1 X108.238 Y101.487 F7800.000
G1 F1800
G1 X108.637 Y101.088 E11.69933
G1 X108.637 Y100.460 E11.74576
G1 X107.610 Y101.487 E11.85313
G1 X106.981 Y101.487 E11.89956
G1 X108.637 Y99.831 E12.07258
G1 X108.637 Y99.203 E12.11901
G1 X106.353 Y101.487 E12.35769
G1 X105.725 Y101.487 E12.40412
G1 X108.399 Y98.813 E12.68355
G1 X107.770 Y98.813 E12.72997
G1 X105.096 Y101.487 E13.00940
G1 X104.468 Y101.487 E13.05583
G1 X107.142 Y98.813 E13.33526
G1 X106.514 Y98.813 E13.38168
G1 X103.840 Y101.487 E13.66111
G1 X103.211 Y101.487 E13.70754
G1 X105.885 Y98.813 E13.98697
G1 X105.257 Y98.813 E14.03339
G1 X102.583 Y101.487 E14.31282
G1 X101.955 Y101.487 E14.35925
G1 X104.629 Y98.813 E14.63868
G1 X104.000 Y98.813 E14.68510
G1 X101.326 Y101.487 E14.96453
G1 X100.698 Y101.487 E15.01096
G1 X103.372 Y98.813 E15.29039
G1 X102.744 Y98.813 E15.33681
G1 X100.070 Y101.487 E15.61624
G1 X99.441 Y101.487 E15.66267
G1 X102.115 Y98.813 E15.94210
G1 X101.487 Y98.813 E15.98852
G1 X98.813 Y101.487 E16.26795
G1 X98.185 Y101.487 E16.31438
G1 X100.859 Y98.813 E16.59381
G1 X100.230 Y98.813 E16.64023
G1 X97.556 Y101.487 E16.91966
G1 X96.928 Y101.487 E16.96609
G1 X99.602 Y98.813 E17.24552
G1 X98.974 Y98.813 E17.29194
G1 X96.300 Y101.487 E17.57137
G1 X95.671 Y101.487 E17.61780
G1 X98.345 Y98.813 E17.89723
G1 X97.717 Y98.813 E17.94365
G1 X95.043 Y101.487 E18.22308
G1 X94.415 Y101.487 E18.26951
G1 X97.089 Y98.813 E18.54894
G1 X96.460 Y98.813 E18.59536
G1 X93.786 Y101.487 E18.87479
G1 X93.158 Y101.487 E18.92122
G1 X95.832 Y98.813 E19.20065
G1 X95.204 Y98.813 E19.24707
G1 X92.530 Y101.487 E19.52650
G1 X91.901 Y101.487 E19.57293
G1 X94.575 Y98.813 E19.85236
G1 X93.947 Y98.813 E19.89878
G1 X91.663 Y101.097 E20.13746
G1 X91.663 Y100.469 E20.18389
G1 X93.319 Y98.813 E20.35692
G1 X92.690 Y98.813 E20.40334
G1 X91.663 Y99.840 E20.51072
G1 X91.663 Y99.212 E20.55714
G1 X92.062 Y98.813 E20.59886
G1 Z0.600 F7800.000
G1 X108.806 Y101.656 F7800.000
G1 F3600
G1 X91.194 Y101.656 E21.35608
G1 X91.194 Y98.344 E21.49847
G1 X108.806 Y98.344 E22.25569
G1 X108.806 Y101.596 E22.39549
G1 X109.323 Y102.173 F7800.000
G1 F3600
G1 X90.677 Y102.173 E23.19718
G1 X90.677 Y97.827 E23.38403
G1 X109.323 Y97.827 E24.18571
G1 X109.323 Y102.113 E24.36998
G1 X109.780 Y102.630 F7800.000
G1 F1800
G1 X90.220 Y102.630 E25.01580
G1 X90.220 Y97.370 E25.18947
G1 X109.780 Y97.370 E25.83529
G1 X109.780 Y102.570 E26.00698
G1 X109.382 Y102.595 F7800.000
G1 X108.526 Y99.099 F7800.000
G1 F1200
G1 X108.051 Y98.624 E26.03680
G1 X107.297 Y98.624 E26.07024
G1 X108.526 Y99.853 E26.14736
G1 X108.526 Y100.607 E26.18080
G1 X106.543 Y98.624 E26.30521
G1 X105.788 Y98.624 E26.33865
G1 X108.526 Y101.362 E26.51036
G1 X108.526 Y101.376 E26.51102
G1 X107.787 Y101.376 E26.54381
G1 X105.034 Y98.624 E26.71644
G1 X104.280 Y98.624 E26.74989
G1 X107.033 Y101.376 E26.92253
G1 X106.279 Y101.376 E26.95597
G1 X103.526 Y98.624 E27.12861
G1 X102.772 Y98.624 E27.16205
G1 X105.525 Y101.376 E27.33469
G1 X104.770 Y101.376 E27.36814
G1 X102.017 Y98.624 E27.54077
G1 X101.263 Y98.624 E27.57422
G1 X104.016 Y101.376 E27.74686
G1 X103.262 Y101.376 E27.78030
G1 X100.509 Y98.624 E27.95294
G1 X99.755 Y98.624 E27.98638
G1 X102.508 Y101.376 E28.15902
G1 X101.754 Y101.376 E28.19247
G1 X99.001 Y98.624 E28.36511
G1 X98.246 Y98.624 E28.39855
G1 X100.999 Y101.376 E28.57119
G1 X100.245 Y101.376 E28.60463
G1 X97.492 Y98.624 E28.77727
G1 X96.738 Y98.624 E28.81071
G1 X99.491 Y101.376 E28.98335
G1 X98.737 Y101.376 E29.01680
G1 X95.984 Y98.624 E29.18944
G1 X95.230 Y98.624 E29.22288
G1 X97.983 Y101.376 E29.39552
G1 X97.228 Y101.376 E29.42896
G1 X94.475 Y98.624 E29.60160
G1 X93.721 Y98.624 E29.63504
G1 X96.474 Y101.376 E29.80768
G1 X95.720 Y101.376 E29.84113
G1 X92.967 Y98.624 E30.01376
G1 X92.213 Y98.624 E30.04721
G1 X94.966 Y101.376 E30.21985
G1 X94.212 Y101.376 E30.25329
G1 X91.474 Y98.638 E30.42500
G1 X91.474 Y99.393 E30.45844
G1 X93.457 Y101.376 E30.58285
G1 X92.703 Y101.376 E30.61630
G1 X91.474 Y100.147 E30.69341
G1 X91.474 Y100.901 E30.72685
G1 X91.949 Y101.376 E30.75666
M106 S255
G1 Z0.800 F7800.000
G1 X108.806 Y101.656 F7800.000
G1 F3600
G1 X91.194 Y101.656 E31.51388
G1 X91.194 Y98.344 E31.65627
G1 X108.806 Y98.344 E32.41349
G1 X108.806 Y101.596 E32.55330
G1 X109.323 Y102.173 F7800.000
G1 F3600
G1 X90.677 Y102.173 E33.35498
G1 X90.677 Y97.827 E33.54183
G1 X109.323 Y97.827 E34.34352
G1 X109.323 Y102.113 E34.52779
G1 X109.780 Y102.630 F7800.000
G1 F1800
G1 X90.220 Y102.630 E35.17361
G1 X90.220 Y97.370 E35.34728
G1 X109.780 Y97.370 E35.99310
G1 X109.780 Y102.570 E36.16479
G1 X109.382 Y102.595 F7800.000
G1 X108.051 Y101.376 F7800.000
G1 F1200
G1 X108.526 Y100.901 E36.19460
G1 X108.526 Y100.147 E36.22805
G1 X107.297 Y101.376 E36.30516
G1 X106.543 Y101.376 E36.33860
G1 X108.526 Y99.393 E36.46301
G1 X108.526 Y98.638 E36.49646
G1 X105.788 Y101.376 E36.66816
G1 X105.034 Y101.376 E36.70161
G1 X107.787 Y98.624 E36.87425
G1 X107.033 Y98.624 E36.90769
G1 X104.280 Y101.376 E37.08033
G1 X103.526 Y101.376 E37.11377
G1 X106.279 Y98.624 E37.28641
G1 X105.525 Y98.624 E37.31985
G1 X102.772 Y101.376 E37.49249
G1 X102.017 Y101.376 E37.52594
G1 X104.770 Y98.624 E37.69858
G1 X104.016 Y98.624 E37.73202
G1 X101.263 Y101.376 E37.90466
G1 X100.509 Y101.376 E37.93810
G1 X103.262 Y98.624 E38.11074
G1 X102.508 Y98.624 E38.14418
G1 X99.755 Y101.376 E38.31682
G1 X99.001 Y101.376 E38.35027
G1 X101.754 Y98.624 E38.52291
G1 X100.999 Y98.624 E38.55635
G1 X98.246 Y101.376 E38.72899
G1 X97.492 Y101.376 E38.76243
G1 X100.245 Y98.624 E38.93507
G1 X99.491 Y98.624 E38.96852
G1 X96.738 Y101.376 E39.14115
G1 X95.984 Y101.376 E39.17460
G1 X98.737 Y98.624 E39.34724
G1 X97.983 Y98.624 E39.38068
G1 X95.230 Y101.376 E39.55332
G1 X94.475 Y101.376 E39.58676
G1 X97.228 Y98.624 E39.75940
G1 X96.474 Y98.624 E39.79285
G1 X93.721 Y101.376 E39.96549
G1 X92.967 Y101.376 E39.99893
G1 X95.720 Y98.624 E40.17157
G1 X94.966 Y98.624 E40.20501
G1 X92.213 Y101.376 E40.37765
G1 X91.474 Y101.376 E40.41044
G1 X91.474 Y101.362 E40.41109
G1 X94.212 Y98.624 E40.58280
G1 X93.457 Y98.624 E40.61625
G1 X91.474 Y100.607 E40.74066
G1 X91.474 Y99.853 E40.77410
G1 X92.703 Y98.624 E40.85121
G1 X91.949 Y98.624 E40.88466
G1 X91.474 Y99.099 E40.91446
G1 Z1.000 F7800.000
G1 E38.91446 F2400.00000
G92 E0
G1 X108.289 Y101.139 F7800.000
G1 E2.00000 F2400.00000
G1 F900
G1 X91.711 Y101.139 E2.71276
G1 X91.711 Y98.861 E2.81068
G1 X108.289 Y98.861 E3.52344
G1 X108.289 Y101.079 E3.61878
G1 X108.806 Y101.656 F7800.000
G1 F3600
G1 X91.194 Y101.656 E4.37600
G1 X91.194 Y98.344 E4.51839
G1 X108.806 Y98.344 E5.27561
G1 X108.806 Y101.596 E5.41541
G1 X109.323 Y102.173 F7800.000
G1 F3600
G1 X90.677 Y102.173 E6.21710
G1 X90.677 Y97.827 E6.40395
G1 X109.323 Y97.827 E7.20563
G1 X109.323 Y102.113 E7.38991
G1 X109.780 Y102.630 F7800.000
G1 F1800
G1 X90.220 Y102.630 E8.03572
G1 X90.220 Y97.370 E8.20940
G1 X109.780 Y97.370 E8.85521
G1 X109.780 Y102.570 E9.02690
G1 X109.382 Y102.595 F7800.000
G1 E7.02690 F2400.00000
G92 E0
G1 X108.093 Y99.390 F7800.000
G1 E2.00000 F2400.00000
G1 F900
G1 X107.760 Y99.057 E2.00817
G1 X107.465 Y99.057 E2.01329
G1 X108.093 Y99.685 E2.02869
G1 X108.093 Y99.980 E2.03381
G1 X107.170 Y99.057 E2.05645
G1 X106.875 Y99.057 E2.06157
G1 X108.093 Y100.275 E2.09145
G1 X108.093 Y100.570 E2.09657
G1 X106.580 Y99.057 E2.13369
G1 X106.285 Y99.057 E2.13880
G1 X108.093 Y100.865 E2.18316
G1 X108.093 Y100.943 E2.18451
G1 X107.876 Y100.943 E2.18828
G1 X105.990 Y99.057 E2.23455
G1 X105.695 Y99.057 E2.23967
G1 X107.581 Y100.943 E2.28594
G1 X107.286 Y100.943 E2.29106
G1 X105.400 Y99.057 E2.33733
G1 X105.105 Y99.057 E2.34245
G1 X106.991 Y100.943 E2.38872
G1 X106.696 Y100.943 E2.39384
G1 X104.810 Y99.057 E2.44011
G1 X104.515 Y99.057 E2.44523
G1 X106.401 Y100.943 E2.49150
G1 X106.106 Y100.943 E2.49662
G1 X104.220 Y99.057 E2.54289
G1 X103.925 Y99.057 E2.54801
G1 X105.811 Y100.943 E2.59428
G1 X105.516 Y100.943 E2.59940
G1 X103.630 Y99.057 E2.64567
G1 X103.335 Y99.057 E2.65079
G1 X105.221 Y100.943 E2.69706
G1 X104.926 Y100.943 E2.70218
G1 X103.040 Y99.057 E2.74845
G1 X102.745 Y99.057 E2.75356
G1 X104.631 Y100.943 E2.79984
G1 X104.336 Y100.943 E2.80495
G1 X102.450 Y99.057 E2.85123
G1 X102.155 Y99.057 E2.85634
G1 X104.041 Y100.943 E2.90262
G1 X103.746 Y100.943 E2.90773
G1 X101.860 Y99.057 E2.95401
G1 X101.565 Y99.057 E2.95912
G1 X103.451 Y100.943 E3.00540
G1 X103.156 Y100.943 E3.01051
G1 X101.270 Y99.057 E3.05679
G1 X100.975 Y99.057 E3.06190
G1 X102.861 Y100.943 E3.10818
G1 X102.566 Y100.943 E3.11329
G1 X100.680 Y99.057 E3.15957
G1 X100.385 Y99.057 E3.16468
G1 X102.271 Y100.943 E3.21096
G1 X101.976 Y100.943 E3.21607
G1 X100.090 Y99.057 E3.26235
G1 X99.794 Y99.057 E3.26746
G1 X101.681 Y100.943 E3.31374
G1 X101.386 Y100.943 E3.31885
G1 X99.499 Y99.057 E3.36513
G1 X99.204 Y99.057 E3.37024
G1 X101.091 Y100.943 E3.41652
G1 X100.796 Y100.943 E3.42163
G1 X98.909 Y99.057 E3.46791
G1 X98.614 Y99.057 E3.47302
G1 X100.501 Y100.943 E3.51929
G1 X100.206 Y100.943 E3.52441
G1 X98.319 Y99.057 E3.57068
G1 X98.024 Y99.057 E3.57580
G1 X99.911 Y100.943 E3.62207
G1 X99.616 Y100.943 E3.62719
G1 X97.729 Y99.057 E3.67346
G1 X97.434 Y99.057 E3.67858
G1 X99.321 Y100.943 E3.72485
G1 X99.025 Y100.943 E3.72997
G1 X97.139 Y99.057 E3.77624
G1 X96.844 Y99.057 E3.78136
G1 X98.730 Y100.943 E3.82763
G1 X98.435 Y100.943 E3.83275
G1 X96.549 Y99.057 E3.87902
G1 X96.254 Y99.057 E3.88414
G1 X98.140 Y100.943 E3.93041
G1 X97.845 Y100.943 E3.93553
G1 X95.959 Y99.057 E3.98180
G1 X95.664 Y99.057 E3.98692
G1 X97.550 Y100.943 E4.03319
G1 X97.255 Y100.943 E4.03831
G1 X95.369 Y99.057 E4.08458
G1 X95.074 Y99.057 E4.08970
G1 X96.960 Y100.943 E4.13597
G1 X96.665 Y100.943 E4.14109
G1 X94.779 Y99.057 E4.18736
G1 X94.484 Y99.057 E4.19248
G1 X96.370 Y100.943 E4.23875
G1 X96.075 Y100.943 E4.24387
G1 X94.189 Y99.057 E4.29014
G1 X93.894 Y99.057 E4.29526
G1 X95.780 Y100.943 E4.34153
G1 X95.485 Y100.943 E4.34665
G1 X93.599 Y99.057 E4.39292
G1 X93.304 Y99.057 E4.39804
G1 X95.190 Y100.943 E4.44431
G1 X94.895 Y100.943 E4.44943
G1 X93.009 Y99.057 E4.49570
G1 X92.714 Y99.057 E4.50082
G1 X94.600 Y100.943 E4.54709
G1 X94.305 Y100.943 E4.55221
G1 X92.419 Y99.057 E4.59848
G1 X92.124 Y99.057 E4.60360
G1 X94.010 Y100.943 E4.64987
G1 X93.715 Y100.943 E4.65499
G1 X91.907 Y99.135 E4.69935
G1 X91.907 Y99.430 E4.70446
G1 X93.420 Y100.943 E4.74158
G1 X93.125 Y100.943 E4.74670
G1 X91.907 Y99.725 E4.77658
G1 X91.907 Y100.020 E4.78170
G1 X92.830 Y100.943 E4.80435
G1 X92.535 Y100.943 E4.80946
G1 X91.907 Y100.315 E4.82487
G1 X91.907 Y100.610 E4.82999
G1 X92.240 Y100.943 E4.83815
G1 Z1.200 F7800.000
G1 E2.83815 F2400.00000
G92 E0
G1 X107.799 Y99.949 F7800.000
G1 E2.00000 F2400.00000
G1 F600
G1 X107.201 Y99.949 E2.02570
G1 X107.201 Y99.351 E2.05140
G1 X107.799 Y99.351 E2.07710
G1 X107.799 Y99.889 E2.10021
G1 X108.316 Y100.466 F7800.000
G1 F600
G1 X106.684 Y100.466 E2.17038
G1 X106.684 Y98.834 E2.24054
G1 X108.316 Y98.834 E2.31070
G1 X108.316 Y100.406 E2.37828
G1 X108.773 Y100.923 F7800.000
G1 F600
G1 X106.227 Y100.923 E2.46235
G1 X106.227 Y98.377 E2.54641
G1 X108.773 Y98.377 E2.63047
G1 X108.773 Y100.863 E2.71255
G1 X108.387 Y100.819 F7800.000
G1 E0.71255 F2400.00000
G92 E0
G1 X92.799 Y99.949 F7800.000
G1 E2.00000 F2400.00000
G1 F600
G1 X92.201 Y99.949 E2.02570
G1 X92.201 Y99.351 E2.05140
G1 X92.799 Y99.351 E2.07710
G1 X92.799 Y99.889 E2.10021
G1 X93.316 Y100.466 F7800.000
G1 F600
G1 X91.684 Y100.466 E2.17038
G1 X91.684 Y98.834 E2.24054
G1 X93.316 Y98.834 E2.31070
G1 X93.316 Y100.406 E2.37828
G1 X93.773 Y100.923 F7800.000
G1 F600
G1 X91.227 Y100.923 E2.46235
G1 X91.227 Y98.377 E2.54641
G1 X93.773 Y98.377 E2.63047
G1 X93.773 Y100.863 E2.71255
G1 X93.387 Y100.819 F7800.000
G1 Z1.400 F7800.000
G1 E0.71255 F2400.00000
G92 E0
G1 X107.215 Y99.935 F7800.000
G1 E2.00000 F2400.00000
G1 F600
G1 X107.215 Y99.365 E2.02450
G1 X107.785 Y99.365 E2.04899
G1 X107.785 Y99.935 E2.07349
G1 X107.275 Y99.935 E2.09540
G1 X106.698 Y100.452 F7800.000
G1 F600
G1 X106.698 Y98.848 E2.16436
G1 X108.302 Y98.848 E2.23332
G1 X108.302 Y100.452 E2.30228
G1 X106.758 Y100.452 E2.36866
G1 X106.241 Y100.909 F7800.000
G1 F600
G1 X106.241 Y98.391 E2.45180
G1 X108.759 Y98.391 E2.53494
G1 X108.759 Y100.909 E2.61808
G1 X106.301 Y100.909 E2.69924
G1 X106.345 Y100.523 F7800.000
G1 E0.69924 F2400.00000
G92 E0
G1 X92.785 Y99.935 F7800.000
G1 E2.00000 F2400.00000
G1 F600
G1 X92.215 Y99.935 E2.02450
G1 X92.215 Y99.365 E2.04899
G1 X92.785 Y99.365 E2.07349
G1 X92.785 Y99.875 E2.09540
G1 X93.302 Y100.452 F7800.000
G1 F600
G1 X91.698 Y100.452 E2.16436
G1 X91.698 Y98.848 E2.23332
G1 X93.302 Y98.848 E2.30228
G1 X93.302 Y100.392 E2.36866
G1 X93.759 Y100.909 F7800.000
G1 F600
G1 X91.241 Y100.909 E2.45180
G1 X91.241 Y98.391 E2.53494
G1 X93.759 Y98.391 E2.61808
G1 X93.759 Y100.849 E2.69924
G1 X93.373 Y100.805 F7800.000
G1 Z1.600 F7800.000
G1 E0.69924 F2400.00000
G92 E0
G1 X107.229 Y99.921 F7800.000
G1 E2.00000 F2400.00000
G1 F600
G1 X107.229 Y99.379 E2.02329
G1 X107.771 Y99.379 E2.04659
G1 X107.771 Y99.921 E2.06988
G1 X107.289 Y99.921 E2.09059
G1 X106.712 Y100.438 F7800.000
G1 F600
G1 X106.712 Y98.862 E2.15835
G1 X108.288 Y98.862 E2.22611
G1 X108.288 Y100.438 E2.29386
G1 X106.772 Y100.438 E2.35904
G1 X106.255 Y100.895 F7800.000
G1 F600
G1 X106.255 Y98.405 E2.44126
G1 X108.745 Y98.405 E2.52347
G1 X108.745 Y100.895 E2.60569
G1 X106.315 Y100.895 E2.68592
G1 X106.358 Y100.509 F7800.000
G1 E0.68592 F2400.00000
G92 E0
G1 X92.771 Y99.921 F7800.000
G1 E2.00000 F2400.00000
G1 F600
G1 X92.229 Y99.921 E2.02329
G1 X92.229 Y99.379 E2.04659
G1 X92.771 Y99.379 E2.06988
G1 X92.771 Y99.861 E2.09059
G1 X93.288 Y100.438 F7800.000
G1 F600
G1 X91.712 Y100.438 E2.15835
G1 X91.712 Y98.862 E2.22611
G1 X93.288 Y98.862 E2.29386
G1 X93.288 Y100.378 E2.35904
G1 X93.745 Y100.895 F7800.000
G1 F600
G1 X91.255 Y100.895 E2.44126
G1 X91.255 Y98.405 E2.52347
G1 X93.745 Y98.405 E2.60569
G1 X93.745 Y100.835 E2.68592
G1 X93.359 Y100.792 F7800.000
G1 Z1.800 F7800.000
G1 E0.68592 F2400.00000
G92 E0
G1 X107.243 Y99.907 F7800.000
G1 E2.00000 F2400.00000
G1 F600
G1 X107.243 Y99.393 E2.02209
G1 X107.757 Y99.393 E2.04418
G1 X107.757 Y99.907 E2.06627
G1 X107.303 Y99.907 E2.08578
G1 X106.726 Y100.424 F7800.000
G1 F600
G1 X106.726 Y98.876 E2.15234
G1 X108.274 Y98.876 E2.21889
G1 X108.274 Y100.424 E2.28545
G1 X106.786 Y100.424 E2.34942
G1 X106.269 Y100.881 F7800.000
G1 F600
G1 X106.269 Y98.419 E2.43071
G1 X108.731 Y98.419 E2.51200
G1 X108.731 Y100.881 E2.59330
G1 X106.329 Y100.881 E2.67261
G1 X106.372 Y100.495 F7800.000
G1 E0.67261 F2400.00000
G92 E0
G1 X92.757 Y99.907 F7800.000
G1 E2.00000 F2400.00000
G1 F600
G1 X92.243 Y99.907 E2.02209
G1 X92.243 Y99.393 E2.04418
G1 X92.757 Y99.393 E2.06627
G1 X92.757 Y99.847 E2.08578
G1 X93.274 Y100.424 F7800.000
G1 F600
G1 X91.726 Y100.424 E2.15234
G1 X91.726 Y98.876 E2.21889
G1 X93.274 Y98.876 E2.28545
G1 X93.274 Y100.364 E2.34942
G1 X93.731 Y100.881 F7800.000
G1 F600
G1 X91.269 Y100.881 E2.43071
G1 X91.269 Y98.419 E2.51200
G1 X93.731 Y98.419 E2.59330
G1 X93.731 Y100.821 E2.67261
G1 X93.345 Y100.778 F7800.000
G1 Z2.000 F7800.000
G1 E0.67261 F2400.00000
G92 E0
G1 X107.257 Y99.893 F7800.000
G1 E2.00000 F2400.00000
G1 F600
G1 X107.257 Y99.407 E2.02089
G1 X107.743 Y99.407 E2.04178
G1 X107.743 Y99.893 E2.06266
G1 X107.317 Y99.893 E2.08097
G1 X106.740 Y100.410 F7800.000
G1 F600
G1 X106.740 Y98.890 E2.14632
G1 X108.260 Y98.890 E2.21168
G1 X108.260 Y100.410 E2.27703
G1 X106.800 Y100.410 E2.33980
G1 X106.283 Y100.867 F7800.000
G1 F600
G1 X106.283 Y98.433 E2.42017
G1 X108.717 Y98.433 E2.50054
G1 X108.717 Y100.867 E2.58091
G1 X106.343 Y100.867 E2.65929
G1 X106.386 Y100.481 F7800.000
G1 E0.65929 F2400.00000
G92 E0
G1 X92.743 Y99.893 F7800.000
G1 E2.00000 F2400.00000
G1 F600
G1 X92.257 Y99.893 E2.02089
G1 X92.257 Y99.407 E2.04178
G1 X92.743 Y99.407 E2.06266
G1 X92.743 Y99.833 E2.08097
G1 X93.260 Y100.410 F7800.000
G1 F600
G1 X91.740 Y100.410 E2.14632
G1 X91.740 Y98.890 E2.21168
G1 X93.260 Y98.890 E2.27703
G1 X93.260 Y100.350 E2.33980
G1 X93.717 Y100.867 F7800.000
G1 F600
G1 X91.283 Y100.867 E2.42017
G1 X91.283 Y98.433 E2.50054
G1 X93.717 Y98.433 E2.58091
G1 X93.717 Y100.807 E2.65929
G1 X93.331 Y100.764 F7800.000
G1 Z2.200 F7800.000
G1 E0.65929 F2400.00000
G92 E0
G1 X107.271 Y99.879 F7800.000
G1 E2.00000 F2400.00000
G1 F600
G1 X107.271 Y99.421 E2.01969
G1 X107.729 Y99.421 E2.03937
G1 X107.729 Y99.879 E2.05906
G1 X107.331 Y99.879 E2.07616
G1 X106.754 Y100.396 F7800.000
G1 F600
G1 X106.754 Y98.904 E2.14031
G1 X108.246 Y98.904 E2.20446
G1 X108.246 Y100.396 E2.26861
G1 X106.814 Y100.396 E2.33018
G1 X106.297 Y100.853 F7800.000
G1 F600
G1 X106.297 Y98.447 E2.40962
G1 X108.703 Y98.447 E2.48907
G1 X108.703 Y100.853 E2.56851
G1 X106.357 Y100.853 E2.64598
G1 X106.400 Y100.467 F7800.000
G1 E0.64598 F2400.00000
G92 E0
G1 X92.729 Y99.879 F7800.000
G1 E2.00000 F2400.00000
G1 F600
G1 X92.271 Y99.879 E2.01969
G1 X92.271 Y99.421 E2.03937
G1 X92.729 Y99.421 E2.05906
G1 X92.729 Y99.819 E2.07616
G1 X93.246 Y100.396 F7800.000
G1 F600
G1 X91.754 Y100.396 E2.14031
G1 X91.754 Y98.904 E2.20446
G1 X93.246 Y98.904 E2.26861
G1 X93.246 Y100.336 E2.33018
G1 X93.703 Y100.853 F7800.000
G1 F600
G1 X91.297 Y100.853 E2.40962
G1 X91.297 Y98.447 E2.48907
G1 X93.703 Y98.447 E2.56851
G1 X93.703 Y100.793 E2.64598
G1 X93.317 Y100.750 F7800.000
G1 Z2.400 F7800.000
G1 E0.64598 F2400.00000
G92 E0
G1 X107.285 Y99.865 F7800.000
G1 E2.00000 F2400.00000
G1 F600
G1 X107.285 Y99.435 E2.01848
G1 X107.715 Y99.435 E2.03697
G1 X107.715 Y99.865 E2.05545
G1 X107.345 Y99.865 E2.07135
G1 X106.768 Y100.382 F7800.000
G1 F600
G1 X106.768 Y98.918 E2.13430
G1 X108.232 Y98.918 E2.19724
G1 X108.232 Y100.382 E2.26019
G1 X106.828 Y100.382 E2.32056
G1 X106.311 Y100.839 F7800.000
G1 F600
G1 X106.311 Y98.461 E2.39908
G1 X108.689 Y98.461 E2.47760
G1 X108.689 Y100.839 E2.55612
G1 X106.371 Y100.839 E2.63266
G1 X106.414 Y100.453 F7800.000
G1 E0.63266 F2400.00000
G92 E0
G1 X92.715 Y99.865 F7800.000
G1 E2.00000 F2400.00000
G1 F600
G1 X92.285 Y99.865 E2.01848
G1 X92.285 Y99.435 E2.03697
G1 X92.715 Y99.435 E2.05545
G1 X92.715 Y99.805 E2.07135
G1 X93.232 Y100.382 F7800.000
G1 F600
G1 X91.768 Y100.382 E2.13430
G1 X91.768 Y98.918 E2.19724
G1 X93.232 Y98.918 E2.26019
G1 X93.232 Y100.322 E2.32056
G1 X93.689 Y100.839 F7800.000
G1 F600
G1 X91.311 Y100.839 E2.39908
G1 X91.311 Y98.461 E2.47760
G1 X93.689 Y98.461 E2.55612
G1 X93.689 Y100.779 E2.63266
G1 X93.303 Y100.736 F7800.000
G1 Z2.600 F7800.000
G1 E0.63266 F2400.00000
G92 E0
G1 X107.299 Y99.851 F7800.000
G1 E2.00000 F2400.00000
G1 F600
G1 X107.299 Y99.449 E2.01728
G1 X107.701 Y99.449 E2.03456
G1 X107.701 Y99.851 E2.05184
G1 X107.359 Y99.851 E2.06654
G1 X106.782 Y100.368 F7800.000
G1 F600
G1 X106.782 Y98.932 E2.12828
G1 X108.218 Y98.932 E2.19003
G1 X108.218 Y100.368 E2.25177
G1 X106.842 Y100.368 E2.31094
G1 X106.325 Y100.825 F7800.000
G1 F600
G1 X106.325 Y98.475 E2.38854
G1 X108.675 Y98.475 E2.46613
G1 X108.675 Y100.825 E2.54373
G1 X106.385 Y100.825 E2.61935
G1 X106.428 Y100.439 F7800.000
G1 E0.61935 F2400.00000
G92 E0
G1 X92.701 Y99.851 F7800.000
G1 E2.00000 F2400.00000
G1 F600
G1 X92.299 Y99.851 E2.01728
G1 X92.299 Y99.449 E2.03456
G1 X92.701 Y99.449 E2.05184
G1 X92.701 Y99.791 E2.06654
G1 X93.218 Y100.368 F7800.000
G1 F600
G1 X91.782 Y100.368 E2.12828
G1 X91.782 Y98.932 E2.19003
G1 X93.218 Y98.932 E2.25177
G1 X93.218 Y100.308 E2.31094
G1 X93.675 Y100.825 F7800.000
G1 F600
G1 X91.325 Y100.825 E2.38853
G1 X91.325 Y98.475 E2.46613
G1 X93.675 Y98.475 E2.54373
G1 X93.675 Y100.765 E2.61935
G1 X93.289 Y100.722 F7800.000
G1 Z2.800 F7800.000
G1 E0.61935 F2400.00000
G92 E0
G1 X107.313 Y99.837 F7800.000
G1 E2.00000 F2400.00000
G1 F600
G1 X107.313 Y99.463 E2.01608
G1 X107.687 Y99.463 E2.03216
G1 X107.687 Y99.837 E2.04823
G1 X107.373 Y99.837 E2.06173
G1 X106.796 Y100.354 F7800.000
G1 F600
G1 X106.796 Y98.946 E2.12227
G1 X108.204 Y98.946 E2.18281
G1 X108.204 Y100.354 E2.24335
G1 X106.856 Y100.354 E2.30132
G1 X106.339 Y100.811 F7800.000
G1 F600
G1 X106.339 Y98.489 E2.37799
G1 X108.661 Y98.489 E2.45467
G1 X108.661 Y100.811 E2.53134
G1 X106.399 Y100.811 E2.60603
G1 X106.442 Y100.425 F7800.000
G1 E0.60603 F2400.00000
G92 E0
G1 X92.687 Y99.837 F7800.000
G1 E2.00000 F2400.00000
G1 F600
G1 X92.313 Y99.837 E2.01608
G1 X92.313 Y99.463 E2.03215
G1 X92.687 Y99.463 E2.04823
G1 X92.687 Y99.777 E2.06173
G1 X93.204 Y100.354 F7800.000
G1 F600
G1 X91.796 Y100.354 E2.12227
G1 X91.796 Y98.946 E2.18281
G1 X93.204 Y98.946 E2.24335
G1 X93.204 Y100.294 E2.30132
G1 X93.661 Y100.811 F7800.000
G1 F600
G1 X91.339 Y100.811 E2.37799
G1 X91.339 Y98.489 E2.45467
G1 X93.661 Y98.489 E2.53134
G1 X93.661 Y100.751 E2.60603
G1 X93.275 Y100.708 F7800.000
G1 Z3.000 F7800.000
G1 E0.60603 F2400.00000
G92 E0
G1 X107.327 Y99.823 F7800.000
G1 E2.00000 F2400.00000
G1 F600
G1 X107.327 Y99.477 E2.01487
G1 X107.673 Y99.477 E2.02975
G1 X107.673 Y99.823 E2.04462
G1 X107.387 Y99.823 E2.05692
G1 X106.810 Y100.340 F7800.000
G1 F600
G1 X106.810 Y98.960 E2.11626
G1 X108.190 Y98.960 E2.17560
G1 X108.190 Y100.340 E2.23494
G1 X106.870 Y100.340 E2.29170
G1 X106.353 Y100.797 F7800.000
G1 F600
G1 X106.353 Y98.503 E2.36745
G1 X108.647 Y98.503 E2.44320
G1 X108.647 Y100.797 E2.51895
G1 X106.413 Y100.797 E2.59272
G1 X106.456 Y100.411 F7800.000
G1 E0.59272 F2400.00000
G92 E0
G1 X92.673 Y99.823 F7800.000
G1 E2.00000 F2400.00000
G1 F600
G1 X92.327 Y99.823 E2.01487
G1 X92.327 Y99.477 E2.02975
G1 X92.673 Y99.477 E2.04462
G1 X92.673 Y99.763 E2.05692
G1 X93.190 Y100.340 F7800.000
G1 F600
G1 X91.810 Y100.340 E2.11626
G1 X91.810 Y98.960 E2.17560
G1 X93.190 Y98.960 E2.23494
G1 X93.190 Y100.280 E2.29170
G1 X93.647 Y100.797 F7800.000
G1 F600
G1 X91.353 Y100.797 E2.36745
G1 X91.353 Y98.503 E2.44320
G1 X93.647 Y98.503 E2.51895
G1 X93.647 Y100.737 E2.59272
G1 X93.261 Y100.694 F7800.000
G1 Z3.200 F7800.000
G1 E0.59272 F2400.00000
G92 E0
G1 X107.341 Y99.809 F7800.000
G1 E2.00000 F2400.00000
G1 F600
G1 X107.341 Y99.491 E2.01367
G1 X107.659 Y99.491 E2.02734
G1 X107.659 Y99.809 E2.04102
G1 X107.401 Y99.809 E2.05211
G1 X106.824 Y100.326 F7800.000
G1 F600
G1 X106.824 Y98.974 E2.11025
G1 X108.176 Y98.974 E2.16838
G1 X108.176 Y100.326 E2.22652
G1 X106.884 Y100.326 E2.28207
G1 X106.367 Y100.783 F7800.000
G1 F600
G1 X106.367 Y98.517 E2.35690
G1 X108.633 Y98.517 E2.43173
G1 X108.633 Y100.783 E2.50656
G1 X106.427 Y100.783 E2.57940
G1 X106.470 Y100.397 F7800.000
G1 E0.57940 F2400.00000
G92 E0
G1 X92.659 Y99.809 F7800.000
G1 E2.00000 F2400.00000
G1 F600
G1 X92.341 Y99.809 E2.01367
G1 X92.341 Y99.491 E2.02734
G1 X92.659 Y99.491 E2.04102
G1 X92.659 Y99.749 E2.05211
G1 X93.176 Y100.326 F7800.000
G1 F600
G1 X91.824 Y100.326 E2.11025
G1 X91.824 Y98.974 E2.16838
G1 X93.176 Y98.974 E2.22652
G1 X93.176 Y100.266 E2.28207
G1 X93.633 Y100.783 F7800.000
G1 F600
G1 X91.367 Y100.783 E2.35690
G1 X91.367 Y98.517 E2.43173
G1 X93.633 Y98.517 E2.50656
G1 X93.633 Y100.723 E2.57940
G1 X93.247 Y100.680 F7800.000
G1 Z3.400 F7800.000
G1 E0.57940 F2400.00000
G92 E0
G1 X106.838 Y100.312 F7800.000
G1 E2.00000 F2400.00000
G1 F600
G1 X106.838 Y98.988 E2.05693
G1 X108.162 Y98.988 E2.11387
G1 X108.162 Y100.312 E2.17080
G1 X106.898 Y100.312 E2.22516
G1 X106.381 Y100.769 F7800.000
G1 F600
G1 X106.381 Y98.531 E2.29906
G1 X108.619 Y98.531 E2.37296
G1 X108.619 Y100.769 E2.44687
G1 X106.441 Y100.769 E2.51879
G1 X106.484 Y100.383 F7800.000
G1 E0.51879 F2400.00000
G92 E0
G1 X93.162 Y100.312 F7800.000
G1 E2.00000 F2400.00000
G1 F600
G1 X91.838 Y100.312 E2.05693
G1 X91.838 Y98.988 E2.11387
G1 X93.162 Y98.988 E2.17080
G1 X93.162 Y100.252 E2.22515
G1 X93.619 Y100.769 F7800.000
G1 F600
G1 X91.381 Y100.769 E2.29906
G1 X91.381 Y98.531 E2.37296
G1 X93.619 Y98.531 E2.44687
G1 X93.619 Y100.709 E2.51879
G1 X93.233 Y100.666 F7800.000
G1 Z3.600 F7800.000
G1 E0.51879 F2400.00000
G92 E0
G1 X106.852 Y100.298 F7800.000
G1 E2.00000 F2400.00000
G1 F600
G1 X106.852 Y99.002 E2.05573
G1 X108.148 Y99.002 E2.11146
G1 X108.148 Y100.298 E2.16719
G1 X106.912 Y100.298 E2.22034
G1 X106.395 Y100.755 F7800.000
G1 F600
G1 X106.395 Y98.545 E2.29332
G1 X108.605 Y98.545 E2.36631
G1 X108.605 Y100.755 E2.43929
G1 X106.455 Y100.755 E2.51029
G1 X106.498 Y100.369 F7800.000
G1 E0.51029 F2400.00000
G92 E0
G1 X93.148 Y100.298 F7800.000
G1 E2.00000 F2400.00000
G1 F600
G1 X91.852 Y100.298 E2.05573
G1 X91.852 Y99.002 E2.11146
G1 X93.148 Y99.002 E2.16719
G1 X93.148 Y100.238 E2.22034
G1 X93.605 Y100.755 F7800.000
G1 F600
G1 X91.395 Y100.755 E2.29332
G1 X91.395 Y98.545 E2.36630
G1 X93.605 Y98.545 E2.43929
G1 X93.605 Y100.695 E2.51028
G1 X93.219 Y100.652 F7800.000
G1 Z3.800 F7800.000
G1 E0.51028 F2400.00000
G92 E0
G1 X106.866 Y100.284 F7800.000
G1 E2.00000 F2400.00000
G1 F600
G1 X106.866 Y99.016 E2.05453
G1 X108.134 Y99.016 E2.10906
G1 X108.134 Y100.284 E2.16359
G1 X106.926 Y100.284 E2.21553
G1 X106.409 Y100.741 F7800.000
G1 F600
G1 X106.409 Y98.559 E2.28759
G1 X108.591 Y98.559 E2.35965
G1 X108.591 Y100.741 E2.43170
G1 X106.469 Y100.741 E2.50178
G1 X106.512 Y100.355 F7800.000
G1 E0.50178 F2400.00000
G92 E0
G1 X93.134 Y100.284 F7800.000
G1 E2.00000 F2400.00000
G1 F600
G1 X91.866 Y100.284 E2.05453
G1 X91.866 Y99.016 E2.10906
G1 X93.134 Y99.016 E2.16359
G1 X93.134 Y100.224 E2.21553
G1 X93.591 Y100.741 F7800.000
G1 F600
G1 X91.409 Y100.741 E2.28759
G1 X91.409 Y98.559 E2.35965
G1 X93.591 Y98.559 E2.43170
G1 X93.591 Y100.681 E2.50178
G1 X93.205 Y100.638 F7800.000
G1 Z4.000 F7800.000
G1 E0.50178 F2400.00000
G92 E0
G1 X106.880 Y100.270 F7800.000
G1 E2.00000 F2400.00000
G1 F600
G1 X106.880 Y99.030 E2.05333
G1 X108.120 Y99.030 E2.10665
G1 X108.120 Y100.270 E2.15998
G1 X106.940 Y100.270 E2.21072
G1 X106.423 Y100.727 F7800.000
G1 F600
G1 X106.423 Y98.573 E2.28186
G1 X108.577 Y98.573 E2.35299
G1 X108.577 Y100.727 E2.42412
G1 X106.483 Y100.727 E2.49328
G1 X106.526 Y100.341 F7800.000
G1 E0.49328 F2400.00000
G92 E0
G1 X93.120 Y100.270 F7800.000
G1 E2.00000 F2400.00000
G1 F600
G1 X91.880 Y100.270 E2.05333
G1 X91.880 Y99.030 E2.10665
G1 X93.120 Y99.030 E2.15998
G1 X93.120 Y100.210 E2.21072
G1 X93.577 Y100.727 F7800.000
G1 F600
G1 X91.423 Y100.727 E2.28186
G1 X91.423 Y98.573 E2.35299
G1 X93.577 Y98.573 E2.42412
G1 X93.577 Y100.667 E2.49328
G1 X93.191 Y100.624 F7800.000
G1 Z4.200 F7800.000
G1 E0.49328 F2400.00000
G92 E0
G1 X106.894 Y100.256 F7800.000
G1 E2.00000 F2400.00000
G1 F600
G1 X106.894 Y99.044 E2.05212
G1 X108.106 Y99.044 E2.10425
G1 X108.106 Y100.256 E2.15637
G1 X106.954 Y100.256 E2.20591
G1 X106.437 Y100.713 F7800.000
G1 F600
G1 X106.437 Y98.587 E2.27612
G1 X108.563 Y98.587 E2.34633
G1 X108.563 Y100.713 E2.41654
G1 X106.497 Y100.713 E2.48477
G1 X106.540 Y100.327 F7800.000
G1 E0.48477 F2400.00000
G92 E0
G1 X93.106 Y100.256 F7800.000
G1 E2.00000 F2400.00000
G1 F600
G1 X91.894 Y100.256 E2.05212
G1 X91.894 Y99.044 E2.10425
G1 X93.106 Y99.044 E2.15637
G1 X93.106 Y100.196 E2.20591
G1 X93.563 Y100.713 F7800.000
G1 F600
G1 X91.437 Y100.713 E2.27612
G1 X91.437 Y98.587 E2.34633
G1 X93.563 Y98.587 E2.41654
G1 X93.563 Y100.653 E2.48477
G1 X93.177 Y100.610 F7800.000
G1 Z4.400 F7800.000
G1 E0.48477 F2400.00000
G92 E0
G1 X106.908 Y100.242 F7800.000
G1 E2.00000 F2400.00000
G1 F600
G1 X106.908 Y99.058 E2.05092
G1 X108.092 Y99.058 E2.10184
G1 X108.092 Y100.242 E2.15276
G1 X106.968 Y100.242 E2.20110
G1 X106.451 Y100.699 F7800.000
G1 F600
G1 X106.451 Y98.601 E2.27039
G1 X108.549 Y98.601 E2.33968
G1 X108.549 Y100.699 E2.40896
G1 X106.511 Y100.699 E2.47627
G1 X106.554 Y100.313 F7800.000
G1 E0.47627 F2400.00000
G92 E0
G1 X93.092 Y100.242 F7800.000
G1 E2.00000 F2400.00000
G1 F600
G1 X91.908 Y100.242 E2.05092
G1 X91.908 Y99.058 E2.10184
G1 X93.092 Y99.058 E2.15276
G1 X93.092 Y100.182 E2.20110
G1 X93.549 Y100.699 F7800.000
G1 F600
G1 X91.451 Y100.699 E2.27039
G1 X91.451 Y98.601 E2.33967
G1 X93.549 Y98.601 E2.40896
G1 X93.549 Y100.639 E2.47627
G1 X93.163 Y100.596 F7800.000
G1 Z4.600 F7800.000
G1 E0.47627 F2400.00000
G92 E0
G1 X106.922 Y100.228 F7800.000
G1 E2.00000 F2400.00000
G1 F600
G1 X106.922 Y99.072 E2.04972
G1 X108.078 Y99.072 E2.09944
G1 X108.078 Y100.228 E2.14915
G1 X106.982 Y100.228 E2.19629
G1 X106.465 Y100.685 F7800.000
G1 F600
G1 X106.465 Y98.615 E2.26466
G1 X108.535 Y98.615 E2.33302
G1 X108.535 Y100.685 E2.40138
G1 X106.525 Y100.685 E2.46776
G1 X106.568 Y100.299 F7800.000
G1 E0.46776 F2400.00000
G92 E0
G1 X93.078 Y100.228 F7800.000
G1 E2.00000 F2400.00000
G1 F600
G1 X91.922 Y100.228 E2.04972
G1 X91.922 Y99.072 E2.09944
G1 X93.078 Y99.072 E2.14915
G1 X93.078 Y100.168 E2.19629
G1 X93.535 Y100.685 F7800.000
G1 F600
G1 X91.465 Y100.685 E2.26465
G1 X91.465 Y98.615 E2.33302
G1 X93.535 Y98.615 E2.40138
G1 X93.535 Y100.625 E2.46776
G1 X93.149 Y100.582 F7800.000
G1 Z4.800 F7800.000
G1 E0.46776 F2400.00000
G92 E0
G1 X106.936 Y100.214 F7800.000
G1 E2.00000 F2400.00000
G1 F600
G1 X106.936 Y99.086 E2.04852
G1 X108.064 Y99.086 E2.09703
G1 X108.064 Y100.214 E2.14555
G1 X106.996 Y100.214 E2.19148
G1 X106.479 Y100.671 F7800.000
G1 F600
G1 X106.479 Y98.629 E2.25892
G1 X108.521 Y98.629 E2.32636
G1 X108.521 Y100.671 E2.39380
G1 X106.539 Y100.671 E2.45926
G1 X106.582 Y100.285 F7800.000
G1 E0.45926 F2400.00000
G92 E0
G1 X93.064 Y100.214 F7800.000
G1 E2.00000 F2400.00000
G1 F600
G1 X91.936 Y100.214 E2.04852
G1 X91.936 Y99.086 E2.09703
G1 X93.064 Y99.086 E2.14555
G1 X93.064 Y100.154 E2.19148
G1 X93.521 Y100.671 F7800.000
G1 F600
G1 X91.479 Y100.671 E2.25892
G1 X91.479 Y98.629 E2.32636
G1 X93.521 Y98.629 E2.39380
G1 X93.521 Y100.611 E2.45926
G1 X93.135 Y100.568 F7800.000
G1 Z5.000 F7800.000
G1 E0.45926 F2400.00000
G92 E0
G1 X106.950 Y100.200 F7800.000
G1 E2.00000 F2400.00000
G1 F600
G1 X106.950 Y99.100 E2.04731
G1 X108.050 Y99.100 E2.09463
G1 X108.050 Y100.200 E2.14194
G1 X107.010 Y100.200 E2.18667
G1 X106.493 Y100.657 F7800.000
G1 F600
G1 X106.493 Y98.643 E2.25319
G1 X108.507 Y98.643 E2.31970
G1 X108.507 Y100.657 E2.38622
G1 X106.553 Y100.657 E2.45075
G1 X106.596 Y100.271 F7800.000
G1 E0.45075 F2400.00000
G92 E0
G1 X93.050 Y100.200 F7800.000
G1 E2.00000 F2400.00000
G1 F600
G1 X91.950 Y100.200 E2.04731
G1 X91.950 Y99.100 E2.09463
G1 X93.050 Y99.100 E2.14194
G1 X93.050 Y100.140 E2.18667
G1 X93.507 Y100.657 F7800.000
G1 F600
G1 X91.493 Y100.657 E2.25319
G1 X91.493 Y98.643 E2.31970
G1 X93.507 Y98.643 E2.38622
G1 X93.507 Y100.597 E2.45075
G1 X93.121 Y100.554 F7800.000
G1 Z5.200 F7800.000
G1 E0.45075 F2400.00000
G92 E0
G1 X106.964 Y100.186 F7800.000
G1 E2.00000 F2400.00000
G1 F600
G1 X106.964 Y99.114 E2.04611
G1 X108.036 Y99.114 E2.09222
G1 X108.036 Y100.186 E2.13833
G1 X107.024 Y100.186 E2.18186
G1 X106.507 Y100.643 F7800.000
G1 F600
G1 X106.507 Y98.657 E2.24745
G1 X108.493 Y98.657 E2.31305
G1 X108.493 Y100.643 E2.37864
G1 X106.567 Y100.643 E2.44225
G1 X106.610 Y100.257 F7800.000
G1 E0.44225 F2400.00000
G92 E0
G1 X93.036 Y100.186 F7800.000
G1 E2.00000 F2400.00000
G1 F600
G1 X91.964 Y100.186 E2.04611
G1 X91.964 Y99.114 E2.09222
G1 X93.036 Y99.114 E2.13833
G1 X93.036 Y100.126 E2.18186
G1 X93.493 Y100.643 F7800.000
G1 F600
G1 X91.507 Y100.643 E2.24745
G1 X91.507 Y98.657 E2.31305
G1 X93.493 Y98.657 E2.37864
G1 X93.493 Y100.583 E2.44225
G1 X93.107 Y100.540 F7800.000
G1 Z5.400 F7800.000
G1 E0.44225 F2400.00000
G92 E0
G1 X106.978 Y100.172 F7800.000
G1 E2.00000 F2400.00000
G1 F600
G1 X106.978 Y99.128 E2.04491
G1 X108.022 Y99.128 E2.08982
G1 X108.022 Y100.172 E2.13472
G1 X107.038 Y100.172 E2.17705
G1 X106.521 Y100.629 F7800.000
G1 F600
G1 X106.521 Y98.671 E2.24172
G1 X108.479 Y98.671 E2.30639
G1 X108.479 Y100.629 E2.37106
G1 X106.581 Y100.629 E2.43374
G1 X106.624 Y100.243 F7800.000
G1 E0.43374 F2400.00000
G92 E0
G1 X93.022 Y100.172 F7800.000
G1 E2.00000 F2400.00000
G1 F600
G1 X91.978 Y100.172 E2.04491
G1 X91.978 Y99.128 E2.08981
G1 X93.022 Y99.128 E2.13472
G1 X93.022 Y100.112 E2.17705
G1 X93.479 Y100.629 F7800.000
G1 F600
G1 X91.521 Y100.629 E2.24172
G1 X91.521 Y98.671 E2.30639
G1 X93.479 Y98.671 E2.37106
G1 X93.479 Y100.569 E2.43374
G1 X93.093 Y100.526 F7800.000
G1 Z5.600 F7800.000
G1 E0.43374 F2400.00000
G92 E0
G1 X106.992 Y100.158 F7800.000
G1 E2.00000 F2400.00000
G1 F600
G1 X106.992 Y99.142 E2.04370
G1 X108.008 Y99.142 E2.08741
G1 X108.008 Y100.158 E2.13111
G1 X107.052 Y100.158 E2.17224
G1 X106.535 Y100.615 F7800.000
G1 F600
G1 X106.535 Y98.685 E2.23599
G1 X108.465 Y98.685 E2.29973
G1 X108.465 Y100.615 E2.36348
G1 X106.595 Y100.615 E2.42524
G1 X106.638 Y100.229 F7800.000
G1 E0.42524 F2400.00000
G92 E0
G1 X93.008 Y100.158 F7800.000
G1 E2.00000 F2400.00000
G1 F600
G1 X91.992 Y100.158 E2.04370
G1 X91.992 Y99.142 E2.08741
G1 X93.008 Y99.142 E2.13111
G1 X93.008 Y100.098 E2.17224
G1 X93.465 Y100.615 F7800.000
G1 F600
G1 X91.535 Y100.615 E2.23598
G1 X91.535 Y98.685 E2.29973
G1 X93.465 Y98.685 E2.36348
G1 X93.465 Y100.555 E2.42524
G1 X93.079 Y100.512 F7800.000
G1 Z5.800 F7800.000
G1 E0.42524 F2400.00000
G92 E0
G1 X107.006 Y100.144 F7800.000
G1 E2.00000 F2400.00000
G1 F600
G1 X107.006 Y99.156 E2.04250
G1 X107.994 Y99.156 E2.08500
G1 X107.994 Y100.144 E2.12751
G1 X107.066 Y100.144 E2.16743
G1 X106.549 Y100.601 F7800.000
G1 F600
G1 X106.549 Y98.699 E2.23025
G1 X108.451 Y98.699 E2.29307
G1 X108.451 Y100.601 E2.35590
G1 X106.609 Y100.601 E2.41674
G1 X106.652 Y100.215 F7800.000
G1 E0.41674 F2400.00000
G92 E0
G1 X92.994 Y100.144 F7800.000
G1 E2.00000 F2400.00000
G1 F600
G1 X92.006 Y100.144 E2.04250
G1 X92.006 Y99.156 E2.08500
G1 X92.994 Y99.156 E2.12751
G1 X92.994 Y100.084 E2.16743
G1 X93.451 Y100.601 F7800.000
G1 F600
G1 X91.549 Y100.601 E2.23025
G1 X91.549 Y98.699 E2.29307
G1 X93.451 Y98.699 E2.35589
G1 X93.451 Y100.541 E2.41673
G1 X93.065 Y100.498 F7800.000
G1 Z6.000 F7800.000
G1 E0.41673 F2400.00000
G92 E0
G1 X107.020 Y100.130 F7800.000
G1 E2.00000 F2400.00000
G1 F600
G1 X107.020 Y99.170 E2.04130
G1 X107.980 Y99.170 E2.08260
G1 X107.980 Y100.130 E2.12390
G1 X107.080 Y100.130 E2.16262
G1 X106.563 Y100.587 F7800.000
G1 F600
G1 X106.563 Y98.713 E2.22452
G1 X108.437 Y98.713 E2.28642
G1 X108.437 Y100.587 E2.34831
G1 X106.623 Y100.587 E2.40823
G1 X106.666 Y100.201 F7800.000
G1 E0.40823 F2400.00000
G92 E0
G1 X92.980 Y100.130 F7800.000
G1 E2.00000 F2400.00000
G1 F600
G1 X92.020 Y100.130 E2.04130
G1 X92.020 Y99.170 E2.08260
G1 X92.980 Y99.170 E2.12390
G1 X92.980 Y100.070 E2.16262
G1 X93.437 Y100.587 F7800.000
G1 F600
G1 X91.563 Y100.587 E2.22452
G1 X91.563 Y98.713 E2.28642
G1 X93.437 Y98.713 E2.34831
G1 X93.437 Y100.527 E2.40823
G1 X93.051 Y100.484 F7800.000
G1 Z6.200 F7800.000
G1 E0.40823 F2400.00000
G92 E0
G1 X107.034 Y100.116 F7800.000
G1 E2.00000 F2400.00000
G1 F600
G1 X107.034 Y99.184 E2.04010
G1 X107.966 Y99.184 E2.08019
G1 X107.966 Y100.116 E2.12029
G1 X107.094 Y100.116 E2.15781
G1 X106.577 Y100.573 F7800.000
G1 F600
G1 X106.577 Y98.727 E2.21878
G1 X108.423 Y98.727 E2.27976
G1 X108.423 Y100.573 E2.34073
G1 X106.637 Y100.573 E2.39973
G1 X106.680 Y100.187 F7800.000
G1 E0.39973 F2400.00000
G92 E0
G1 X92.966 Y100.116 F7800.000
G1 E2.00000 F2400.00000
G1 F600
G1 X92.034 Y100.116 E2.04010
G1 X92.034 Y99.184 E2.08019
G1 X92.966 Y99.184 E2.12029
G1 X92.966 Y100.056 E2.15781
G1 X93.423 Y100.573 F7800.000
G1 F600
G1 X91.577 Y100.573 E2.21878
G1 X91.577 Y98.727 E2.27976
G1 X93.423 Y98.727 E2.34073
G1 X93.423 Y100.513 E2.39973
G1 X93.037 Y100.470 F7800.000
G1 Z6.400 F7800.000
G1 E0.39973 F2400.00000
G92 E0
G1 X107.048 Y100.102 F7800.000
G1 E2.00000 F2400.00000
G1 F600
G1 X107.048 Y99.198 E2.03889
G1 X107.952 Y99.198 E2.07779
G1 X107.952 Y100.102 E2.11668
G1 X107.108 Y100.102 E2.15300
G1 X106.591 Y100.559 F7800.000
G1 F600
G1 X106.591 Y98.741 E2.21305
G1 X108.409 Y98.741 E2.27310
G1 X108.409 Y100.559 E2.33315
G1 X106.651 Y100.559 E2.39122
G1 X106.694 Y100.173 F7800.000
G1 E0.39122 F2400.00000
G92 E0
G1 X92.952 Y100.102 F7800.000
G1 E2.00000 F2400.00000
G1 F600
G1 X92.048 Y100.102 E2.03889
G1 X92.048 Y99.198 E2.07779
G1 X92.952 Y99.198 E2.11668
G1 X92.952 Y100.042 E2.15300
G1 X93.409 Y100.559 F7800.000
G1 F600
G1 X91.591 Y100.559 E2.21305
G1 X91.591 Y98.741 E2.27310
G1 X93.409 Y98.741 E2.33315
G1 X93.409 Y100.499 E2.39122
G1 X93.023 Y100.456 F7800.000
G1 Z6.600 F7800.000
G1 E0.39122 F2400.00000
G92 E0
G1 X107.062 Y100.088 F7800.000
G1 E2.00000 F2400.00000
G1 F600
G1 X107.062 Y99.212 E2.03769
G1 X107.938 Y99.212 E2.07538
G1 X107.938 Y100.088 E2.11308
G1 X107.122 Y100.088 E2.14819
G1 X106.605 Y100.545 F7800.000
G1 F600
G1 X106.605 Y98.755 E2.20732
G1 X108.395 Y98.755 E2.26644
G1 X108.395 Y100.545 E2.32557
G1 X106.665 Y100.545 E2.38272
G1 X106.708 Y100.159 F7800.000
G1 E0.38272 F2400.00000
G92 E0
G1 X92.938 Y100.088 F7800.000
G1 E2.00000 F2400.00000
G1 F600
G1 X92.062 Y100.088 E2.03769
G1 X92.062 Y99.212 E2.07538
G1 X92.938 Y99.212 E2.11308
G1 X92.938 Y100.028 E2.14819
G1 X93.395 Y100.545 F7800.000
G1 F600
G1 X91.605 Y100.545 E2.20732
G1 X91.605 Y98.755 E2.26644
G1 X93.395 Y98.755 E2.32557
G1 X93.395 Y100.485 E2.38272
G1 X93.009 Y100.442 F7800.000
G1 Z6.800 F7800.000
G1 E0.38272 F2400.00000
G92 E0
G1 X107.076 Y100.074 F7800.000
G1 E2.00000 F2400.00000
G1 F600
G1 X107.076 Y99.226 E2.03649
G1 X107.924 Y99.226 E2.07298
G1 X107.924 Y100.074 E2.10947
G1 X107.136 Y100.074 E2.14338
G1 X106.619 Y100.531 F7800.000
G1 F600
G1 X106.619 Y98.769 E2.20158
G1 X108.381 Y98.769 E2.25979
G1 X108.381 Y100.531 E2.31799
G1 X106.679 Y100.531 E2.37421
G1 X106.722 Y100.145 F7800.000
G1 E0.37421 F2400.00000
G92 E0
G1 X92.924 Y100.074 F7800.000
G1 E2.00000 F2400.00000
G1 F600
G1 X92.076 Y100.074 E2.03649
G1 X92.076 Y99.226 E2.07298
G1 X92.924 Y99.226 E2.10947
G1 X92.924 Y100.014 E2.14338
G1 X93.381 Y100.531 F7800.000
G1 F600
G1 X91.619 Y100.531 E2.20158
G1 X91.619 Y98.769 E2.25979
G1 X93.381 Y98.769 E2.31799
G1 X93.381 Y100.471 E2.37421
G1 X92.995 Y100.428 F7800.000
G1 Z7.000 F7800.000
G1 E0.37421 F2400.00000
G92 E0
G1 X107.090 Y100.060 F7800.000
G1 E2.00000 F2400.00000
G1 F600
G1 X107.090 Y99.240 E2.03529
G1 X107.910 Y99.240 E2.07057
G1 X107.910 Y100.060 E2.10586
G1 X107.150 Y100.060 E2.13857
G1 X106.633 Y100.517 F7800.000
G1 F600
G1 X106.633 Y98.783 E2.19585
G1 X108.367 Y98.783 E2.25313
G1 X108.367 Y100.517 E2.31041
G1 X106.693 Y100.517 E2.36571
G1 X106.736 Y100.131 F7800.000
G1 E0.36571 F2400.00000
G92 E0
G1 X92.910 Y100.060 F7800.000
G1 E2.00000 F2400.00000
G1 F600
G1 X92.090 Y100.060 E2.03529
G1 X92.090 Y99.240 E2.07057
G1 X92.910 Y99.240 E2.10586
G1 X92.910 Y100.000 E2.13857
G1 X93.367 Y100.517 F7800.000
G1 F600
G1 X91.633 Y100.517 E2.19585
G1 X91.633 Y98.783 E2.25313
G1 X93.367 Y98.783 E2.31041
G1 X93.367 Y100.457 E2.36571
G1 X92.981 Y100.414 F7800.000
G1 Z7.200 F7800.000
G1 E0.36571 F2400.00000
G92 E0
G1 X107.104 Y100.046 F7800.000
G1 E2.00000 F2400.00000
G1 F600
G1 X107.104 Y99.254 E2.03408
G1 X107.896 Y99.254 E2.06817
G1 X107.896 Y100.046 E2.10225
G1 X107.164 Y100.046 E2.13376
G1 X106.647 Y100.503 F7800.000
G1 F600
G1 X106.647 Y98.797 E2.19011
G1 X108.353 Y98.797 E2.24647
G1 X108.353 Y100.503 E2.30283
G1 X106.707 Y100.503 E2.35720
G1 X106.750 Y100.117 F7800.000
G1 E0.35720 F2400.00000
G92 E0
G1 X92.896 Y100.046 F7800.000
G1 E2.00000 F2400.00000
G1 F600
G1 X92.104 Y100.046 E2.03408
G1 X92.104 Y99.254 E2.06817
G1 X92.896 Y99.254 E2.10225
G1 X92.896 Y99.986 E2.13376
G1 X93.353 Y100.503 F7800.000
G1 F600
G1 X91.647 Y100.503 E2.19011
G1 X91.647 Y98.797 E2.24647
G1 X93.353 Y98.797 E2.30283
G1 X93.353 Y100.443 E2.35720
G1 X92.967 Y100.400 F7800.000
G1 Z7.400 F7800.000
G1 E0.35720 F2400.00000
G92 E0
G1 X107.118 Y100.032 F7800.000
G1 E2.00000 F2400.00000
G1 F600
G1 X107.118 Y99.268 E2.03288
G1 X107.882 Y99.268 E2.06576
G1 X107.882 Y100.032 E2.09864
G1 X107.178 Y100.032 E2.12895
G1 X106.661 Y100.489 F7800.000
G1 F600
G1 X106.661 Y98.811 E2.18438
G1 X108.339 Y98.811 E2.23981
G1 X108.339 Y100.489 E2.29525
G1 X106.721 Y100.489 E2.34870
G1 X106.764 Y100.103 F7800.000
G1 E0.34870 F2400.00000
G92 E0
G1 X92.882 Y100.032 F7800.000
G1 E2.00000 F2400.00000
G1 F600
G1 X92.118 Y100.032 E2.03288
G1 X92.118 Y99.268 E2.06576
G1 X92.882 Y99.268 E2.09864
G1 X92.882 Y99.972 E2.12895
G1 X93.339 Y100.489 F7800.000
G1 F600
G1 X91.661 Y100.489 E2.18438
G1 X91.661 Y98.811 E2.23981
G1 X93.339 Y98.811 E2.29525
G1 X93.339 Y100.429 E2.34870
G1 X92.953 Y100.386 F7800.000
G1 Z7.600 F7800.000
G1 E0.34870 F2400.00000
G92 E0
G1 X107.132 Y100.018 F7800.000
G1 E2.00000 F2400.00000
G1 F600
G1 X107.132 Y99.282 E2.03168
G1 X107.868 Y99.282 E2.06336
G1 X107.868 Y100.018 E2.09504
G1 X107.192 Y100.018 E2.12414
G1 X106.675 Y100.475 F7800.000
G1 F600
G1 X106.675 Y98.825 E2.17865
G1 X108.325 Y98.825 E2.23316
G1 X108.325 Y100.475 E2.28767
G1 X106.735 Y100.475 E2.34020
G1 X106.778 Y100.089 F7800.000
G1 E0.34020 F2400.00000
G92 E0
G1 X92.868 Y100.018 F7800.000
G1 E2.00000 F2400.00000
G1 F600
G1 X92.132 Y100.018 E2.03168
G1 X92.132 Y99.282 E2.06336
G1 X92.868 Y99.282 E2.09504
G1 X92.868 Y99.958 E2.12414
G1 X93.325 Y100.475 F7800.000
G1 F600
G1 X91.675 Y100.475 E2.17865
G1 X91.675 Y98.825 E2.23316
G1 X93.325 Y98.825 E2.28767
G1 X93.325 Y100.415 E2.34019
G1 X92.939 Y100.372 F7800.000
G1 Z7.800 F7800.000
G1 E0.34019 F2400.00000
G92 E0
G1 X107.146 Y100.004 F7800.000
G1 E2.00000 F2400.00000
G1 F600
G1 X107.146 Y99.296 E2.03048
G1 X107.854 Y99.296 E2.06095
G1 X107.854 Y100.004 E2.09143
G1 X107.206 Y100.004 E2.11933
G1 X106.689 Y100.461 F7800.000
G1 F600
G1 X106.689 Y98.839 E2.17291
G1 X108.311 Y98.839 E2.22650
G1 X108.311 Y100.461 E2.28009
G1 X106.749 Y100.461 E2.33169
G1 X106.792 Y100.075 F7800.000
G1 E0.33169 F2400.00000
G92 E0
G1 X92.854 Y100.004 F7800.000
G1 E2.00000 F2400.00000
G1 F600
G1 X92.146 Y100.004 E2.03048
G1 X92.146 Y99.296 E2.06095
G1 X92.854 Y99.296 E2.09143
G1 X92.854 Y99.944 E2.11932
G1 X93.311 Y100.461 F7800.000
G1 F600
G1 X91.689 Y100.461 E2.17291
G1 X91.689 Y98.839 E2.22650
G1 X93.311 Y98.839 E2.28008
G1 X93.311 Y100.401 E2.33169
G1 X92.925 Y100.358 F7800.000
G1 Z8.000 F7800.000
G1 E0.33169 F2400.00000
G92 E0
G1 X107.160 Y99.990 F7800.000
G1 E2.00000 F2400.00000
G1 F600
G1 X107.160 Y99.310 E2.02927
G1 X107.840 Y99.310 E2.05855
G1 X107.840 Y99.990 E2.08782
G1 X107.220 Y99.990 E2.11452
G1 X106.702 Y100.448 F7800.000
G1 F600
G1 X106.702 Y98.852 E2.16718
G1 X108.298 Y98.852 E2.21984
G1 X108.298 Y100.448 E2.27250
G1 X106.762 Y100.448 E2.32319
G1 X106.806 Y100.061 F7800.000
G1 E0.32319 F2400.00000
G92 E0
G1 X92.840 Y99.990 F7800.000
G1 E2.00000 F2400.00000
G1 F600
G1 X92.160 Y99.990 E2.02927
G1 X92.160 Y99.310 E2.05855
G1 X92.840 Y99.310 E2.08782
G1 X92.840 Y99.930 E2.11451
G1 X93.298 Y100.448 F7800.000
G1 F600
G1 X91.702 Y100.448 E2.16718
G1 X91.702 Y98.852 E2.21984
G1 X93.298 Y98.852 E2.27250
G1 X93.298 Y100.388 E2.32318
G1 X92.911 Y100.344 F7800.000
G1 Z8.200 F7800.000
G1 E0.32318 F2400.00000
G92 E0
G1 X107.174 Y99.976 F7800.000
G1 E2.00000 F2400.00000
G1 F600
G1 X107.174 Y99.324 E2.02807
G1 X107.826 Y99.324 E2.05614
G1 X107.826 Y99.976 E2.08421
G1 X107.234 Y99.976 E2.10970
G1 X106.716 Y100.434 F7800.000
G1 F600
G1 X106.716 Y98.866 E2.16144
G1 X108.284 Y98.866 E2.21318
G1 X108.284 Y100.434 E2.26492
G1 X106.776 Y100.434 E2.31468
G1 X106.820 Y100.047 F7800.000
G1 E0.31468 F2400.00000
G92 E0
G1 X92.826 Y99.976 F7800.000
G1 E2.00000 F2400.00000
G1 F600
G1 X92.174 Y99.976 E2.02807
G1 X92.174 Y99.324 E2.05614
G1 X92.826 Y99.324 E2.08421
G1 X92.826 Y99.916 E2.10970
G1 X93.284 Y100.434 F7800.000
G1 F600
G1 X91.716 Y100.434 E2.16144
G1 X91.716 Y98.866 E2.21318
G1 X93.284 Y98.866 E2.26492
G1 X93.284 Y100.374 E2.31468
G1 X92.897 Y100.330 F7800.000
G1 Z8.400 F7800.000
G1 E0.31468 F2400.00000
G92 E0
G1 X107.188 Y99.962 F7800.000
G1 E2.00000 F2400.00000
G1 F600
G1 X107.188 Y99.338 E2.02687
G1 X107.812 Y99.338 E2.05374
G1 X107.812 Y99.962 E2.08061
G1 X107.248 Y99.962 E2.10489
G1 X106.730 Y100.420 F7800.000
G1 F600
G1 X106.730 Y98.880 E2.15571
G1 X108.270 Y98.880 E2.20653
G1 X108.270 Y100.420 E2.25734
G1 X106.790 Y100.420 E2.30618
G1 X106.834 Y100.033 F7800.000
G1 E0.30618 F2400.00000
G92 E0
G1 X92.812 Y99.962 F7800.000
G1 E2.00000 F2400.00000
G1 F600
G1 X92.188 Y99.962 E2.02687
G1 X92.188 Y99.338 E2.05374
G1 X92.812 Y99.338 E2.08060
G1 X92.812 Y99.902 E2.10489
G1 X93.270 Y100.420 F7800.000
G1 F600
G1 X91.730 Y100.420 E2.15571
G1 X91.730 Y98.880 E2.20653
G1 X93.270 Y98.880 E2.25734
G1 X93.270 Y100.360 E2.30618
G1 X92.883 Y100.316 F7800.000
G1 Z8.600 F7800.000
G1 E0.30618 F2400.00000
G92 E0
G1 X107.202 Y99.948 F7800.000
G1 E2.00000 F2400.00000
G1 F600
G1 X107.202 Y99.352 E2.02567
G1 X107.798 Y99.352 E2.05133
G1 X107.798 Y99.948 E2.07700
G1 X107.262 Y99.948 E2.10008
G1 X106.744 Y100.406 F7800.000
G1 F600
G1 X106.744 Y98.894 E2.14998
G1 X108.256 Y98.894 E2.19987
G1 X108.256 Y100.406 E2.24976
G1 X106.804 Y100.406 E2.29767
G1 X106.848 Y100.019 F7800.000
G1 E0.29767 F2400.00000
G92 E0
G1 X92.798 Y99.948 F7800.000
G1 E2.00000 F2400.00000
G1 F600
G1 X92.202 Y99.948 E2.02567
G1 X92.202 Y99.352 E2.05133
G1 X92.798 Y99.352 E2.07700
G1 X92.798 Y99.888 E2.10008
G1 X93.256 Y100.406 F7800.000
G1 F600
G1 X91.744 Y100.406 E2.14998
G1 X91.744 Y98.894 E2.19987
G1 X93.256 Y98.894 E2.24976
G1 X93.256 Y100.346 E2.29767
G1 X92.869 Y100.302 F7800.000
G1 Z8.800 F7800.000
G1 E0.29767 F2400.00000
G92 E0
G1 X107.216 Y99.934 F7800.000
G1 E2.00000 F2400.00000
G1 F600
G1 X107.216 Y99.366 E2.02446
G1 X107.784 Y99.366 E2.04893
G1 X107.784 Y99.934 E2.07339
G1 X107.276 Y99.934 E2.09527
G1 X106.758 Y100.392 F7800.000
G1 F600
G1 X106.758 Y98.908 E2.14424
G1 X108.242 Y98.908 E2.19321
G1 X108.242 Y100.392 E2.24218
G1 X106.818 Y100.392 E2.28917
G1 X106.862 Y100.005 F7800.000
G1 E0.28917 F2400.00000
G92 E0
G1 X92.784 Y99.934 F7800.000
G1 E2.00000 F2400.00000
G1 F600
G1 X92.216 Y99.934 E2.02446
G1 X92.216 Y99.366 E2.04893
G1 X92.784 Y99.366 E2.07339
G1 X92.784 Y99.874 E2.09527
G1 X93.242 Y100.392 F7800.000
G1 F600
G1 X91.758 Y100.392 E2.14424
G1 X91.758 Y98.908 E2.19321
G1 X93.242 Y98.908 E2.24218
G1 X93.242 Y100.332 E2.28917
G1 X92.855 Y100.288 F7800.000
G1 Z9.000 F7800.000
G1 E0.28917 F2400.00000
G92 E0
G1 X107.229 Y99.921 F7800.000
G1 E2.00000 F2400.00000
G1 F600
G1 X107.229 Y99.379 E2.02326
G1 X107.771 Y99.379 E2.04652
G1 X107.771 Y99.921 E2.06978
G1 X107.289 Y99.921 E2.09046
G1 X106.772 Y100.378 F7800.000
G1 F600
G1 X106.772 Y98.922 E2.13851
G1 X108.228 Y98.922 E2.18655
G1 X108.228 Y100.378 E2.23460
G1 X106.832 Y100.378 E2.28066
G1 X106.876 Y99.991 F7800.000
G1 E0.28066 F2400.00000
G92 E0
G1 X92.770 Y99.921 F7800.000
G1 E2.00000 F2400.00000
G1 F600
G1 X92.230 Y99.921 E2.02326
G1 X92.230 Y99.379 E2.04652
G1 X92.770 Y99.379 E2.06978
G1 X92.770 Y99.861 E2.09046
G1 X93.228 Y100.378 F7800.000
G1 F600
G1 X91.772 Y100.378 E2.13851
G1 X91.772 Y98.922 E2.18655
G1 X93.228 Y98.922 E2.23460
G1 X93.228 Y100.318 E2.28066
G1 X92.841 Y100.274 F7800.000
G1 Z9.200 F7800.000
G1 E0.28066 F2400.00000
G92 E0
G1 X107.243 Y99.907 F7800.000
G1 E2.00000 F2400.00000
G1 F600
G1 X107.243 Y99.393 E2.02206
G1 X107.757 Y99.393 E2.04412
G1 X107.757 Y99.907 E2.06617
G1 X107.303 Y99.907 E2.08565
G1 X106.786 Y100.364 F7800.000
G1 F600
G1 X106.786 Y98.936 E2.13277
G1 X108.214 Y98.936 E2.17990
G1 X108.214 Y100.364 E2.22702
G1 X106.846 Y100.364 E2.27216
G1 X106.890 Y99.977 F7800.000
G1 E0.27216 F2400.00000
G92 E0
G1 X92.757 Y99.907 F7800.000
G1 E2.00000 F2400.00000
G1 F600
G1 X92.243 Y99.907 E2.02206
G1 X92.243 Y99.393 E2.04412
G1 X92.757 Y99.393 E2.06617
G1 X92.757 Y99.847 E2.08565
G1 X93.214 Y100.364 F7800.000
G1 F600
G1 X91.786 Y100.364 E2.13277
G1 X91.786 Y98.936 E2.17990
G1 X93.214 Y98.936 E2.22702
G1 X93.214 Y100.304 E2.27216
G1 X92.827 Y100.260 F7800.000
G1 Z9.400 F7800.000
G1 E0.27216 F2400.00000
G92 E0
G1 X107.257 Y99.893 F7800.000
G1 E2.00000 F2400.00000
G1 F600
G1 X107.257 Y99.407 E2.02086
G1 X107.743 Y99.407 E2.04171
G1 X107.743 Y99.893 E2.06257
G1 X107.317 Y99.893 E2.08084
G1 X106.800 Y100.350 F7800.000
G1 F600
G1 X106.800 Y98.950 E2.12704
G1 X108.200 Y98.950 E2.17324
G1 X108.200 Y100.350 E2.21944
G1 X106.860 Y100.350 E2.26366
G1 X106.904 Y99.963 F7800.000
G1 E0.26366 F2400.00000
G92 E0
G1 X92.743 Y99.893 F7800.000
G1 E2.00000 F2400.00000
G1 F600
G1 X92.257 Y99.893 E2.02086
G1 X92.257 Y99.407 E2.04171
G1 X92.743 Y99.407 E2.06257
G1 X92.743 Y99.833 E2.08084
G1 X93.200 Y100.350 F7800.000
G1 F600
G1 X91.800 Y100.350 E2.12704
G1 X91.800 Y98.950 E2.17324
G1 X93.200 Y98.950 E2.21944
G1 X93.200 Y100.290 E2.26365
G1 X92.813 Y100.246 F7800.000
G1 Z9.600 F7800.000
G1 E0.26365 F2400.00000
G92 E0
G1 X107.271 Y99.879 F7800.000
G1 E2.00000 F2400.00000
G1 F600
G1 X107.271 Y99.421 E2.01965
G1 X107.729 Y99.421 E2.03931
G1 X107.729 Y99.879 E2.05896
G1 X107.331 Y99.879 E2.07603
G1 X106.814 Y100.336 F7800.000
G1 F600
G1 X106.814 Y98.964 E2.12131
G1 X108.186 Y98.964 E2.16658
G1 X108.186 Y100.336 E2.21186
G1 X106.874 Y100.336 E2.25515
G1 X106.918 Y99.949 F7800.000
G1 E0.25515 F2400.00000
G92 E0
G1 X92.729 Y99.879 F7800.000
G1 E2.00000 F2400.00000
G1 F600
G1 X92.271 Y99.879 E2.01965
G1 X92.271 Y99.421 E2.03931
G1 X92.729 Y99.421 E2.05896
G1 X92.729 Y99.819 E2.07603
G1 X93.186 Y100.336 F7800.000
G1 F600
G1 X91.814 Y100.336 E2.12131
G1 X91.814 Y98.964 E2.16658
G1 X93.186 Y98.964 E2.21186
G1 X93.186 Y100.276 E2.25515
G1 X92.799 Y100.232 F7800.000
G1 Z9.800 F7800.000
G1 E0.25515 F2400.00000
G92 E0
G1 X107.285 Y99.865 F7800.000
G1 E2.00000 F2400.00000
G1 F600
G1 X107.285 Y99.435 E2.01845
G1 X107.715 Y99.435 E2.03690
G1 X107.715 Y99.865 E2.05535
G1 X107.345 Y99.865 E2.07122
G1 X106.828 Y100.322 F7800.000
G1 F600
G1 X106.828 Y98.978 E2.11557
G1 X108.172 Y98.978 E2.15992
G1 X108.172 Y100.322 E2.20428
G1 X106.888 Y100.322 E2.24665
G1 X106.932 Y99.935 F7800.000
G1 E0.24665 F2400.00000
G92 E0
G1 X92.715 Y99.865 F7800.000
G1 E2.00000 F2400.00000
G1 F600
G1 X92.285 Y99.865 E2.01845
G1 X92.285 Y99.435 E2.03690
G1 X92.715 Y99.435 E2.05535
G1 X92.715 Y99.805 E2.07122
G1 X93.172 Y100.322 F7800.000
G1 F600
G1 X91.828 Y100.322 E2.11557
G1 X91.828 Y98.978 E2.15992
G1 X93.172 Y98.978 E2.20427
G1 X93.172 Y100.262 E2.24664
G1 X92.785 Y100.218 F7800.000
G1 Z10.000 F7800.000
G1 E0.24664 F2400.00000
G92 E0
G1 X107.299 Y99.851 F7800.000
G1 E2.00000 F2400.00000
G1 F600
G1 X107.299 Y99.449 E2.01725
G1 X107.701 Y99.449 E2.03450
G1 X107.701 Y99.851 E2.05174
G1 X107.359 Y99.851 E2.06641
G1 X106.842 Y100.308 F7800.000
G1 F600
G1 X106.842 Y98.992 E2.10984
G1 X108.158 Y98.992 E2.15327
G1 X108.158 Y100.308 E2.19669
G1 X106.902 Y100.308 E2.23814
G1 X106.946 Y99.921 F7800.000
G1 E0.23814 F2400.00000
G92 E0
G1 X92.701 Y99.851 F7800.000
G1 E2.00000 F2400.00000
G1 F600
G1 X92.299 Y99.851 E2.01725
G1 X92.299 Y99.449 E2.03449
G1 X92.701 Y99.449 E2.05174
G1 X92.701 Y99.791 E2.06641
G1 X93.158 Y100.308 F7800.000
G1 F600
G1 X91.842 Y100.308 E2.10984
G1 X91.842 Y98.992 E2.15327
G1 X93.158 Y98.992 E2.19669
G1 X93.158 Y100.248 E2.23814
G1 X92.771 Y100.204 F7800.000
G1 Z10.200 F7800.000
G1 E0.23814 F2400.00000
G92 E0
G1 X107.313 Y99.837 F7800.000
G1 E2.00000 F2400.00000
G1 F600
G1 X107.313 Y99.463 E2.01604
G1 X107.687 Y99.463 E2.03209
G1 X107.687 Y99.837 E2.04814
G1 X107.373 Y99.837 E2.06160
G1 X106.856 Y100.294 F7800.000
G1 F600
G1 X106.856 Y99.006 E2.10410
G1 X108.144 Y99.006 E2.14661
G1 X108.144 Y100.294 E2.18911
G1 X106.916 Y100.294 E2.22964
G1 X106.960 Y99.907 F7800.000
G1 E0.22964 F2400.00000
G92 E0
G1 X92.687 Y99.837 F7800.000
G1 E2.00000 F2400.00000
G1 F600
G1 X92.313 Y99.837 E2.01604
G1 X92.313 Y99.463 E2.03209
G1 X92.687 Y99.463 E2.04813
G1 X92.687 Y99.777 E2.06160
G1 X93.144 Y100.294 F7800.000
G1 F600
G1 X91.856 Y100.294 E2.10410
G1 X91.856 Y99.006 E2.14661
G1 X93.144 Y99.006 E2.18911
G1 X93.144 Y100.234 E2.22964
G1 X92.757 Y100.190 F7800.000
G1 Z10.400 F7800.000
G1 E0.22964 F2400.00000
G92 E0
G1 X107.327 Y99.823 F7800.000
G1 E2.00000 F2400.00000
G1 F600
G1 X107.327 Y99.477 E2.01484
G1 X107.673 Y99.477 E2.02968
G1 X107.673 Y99.823 E2.04453
G1 X107.387 Y99.823 E2.05679
G1 X106.870 Y100.280 F7800.000
G1 F600
G1 X106.870 Y99.020 E2.09837
G1 X108.130 Y99.020 E2.13995
G1 X108.130 Y100.280 E2.18153
G1 X106.930 Y100.280 E2.22113
G1 X106.974 Y99.893 F7800.000
G1 E0.22113 F2400.00000
G92 E0
G1 X92.673 Y99.823 F7800.000
G1 E2.00000 F2400.00000
G1 F600
G1 X92.327 Y99.823 E2.01484
G1 X92.327 Y99.477 E2.02968
G1 X92.673 Y99.477 E2.04453
G1 X92.673 Y99.763 E2.05679
G1 X93.130 Y100.280 F7800.000
G1 F600
G1 X91.870 Y100.280 E2.09837
G1 X91.870 Y99.020 E2.13995
G1 X93.130 Y99.020 E2.18153
G1 X93.130 Y100.220 E2.22113
G1 X92.743 Y100.176 F7800.000
G1 Z10.600 F7800.000
G1 E0.22113 F2400.00000
G92 E0
G1 X107.341 Y99.809 F7800.000
G1 E2.00000 F2400.00000
G1 F600
G1 X107.341 Y99.491 E2.01364
G1 X107.659 Y99.491 E2.02728
G1 X107.659 Y99.809 E2.04092
G1 X107.401 Y99.809 E2.05198
G1 X106.884 Y100.266 F7800.000
G1 F600
G1 X106.884 Y99.034 E2.09264
G1 X108.116 Y99.034 E2.13329
G1 X108.116 Y100.266 E2.17395
G1 X106.944 Y100.266 E2.21263
G1 X106.988 Y99.879 F7800.000
G1 E0.21263 F2400.00000
G92 E0
G1 X92.659 Y99.809 F7800.000
G1 E2.00000 F2400.00000
G1 F600
G1 X92.341 Y99.809 E2.01364
G1 X92.341 Y99.491 E2.02728
G1 X92.659 Y99.491 E2.04092
G1 X92.659 Y99.749 E2.05198
G1 X93.116 Y100.266 F7800.000
G1 F600
G1 X91.884 Y100.266 E2.09264
G1 X91.884 Y99.034 E2.13329
G1 X93.116 Y99.034 E2.17395
G1 X93.116 Y100.206 E2.21263
G1 X92.729 Y100.162 F7800.000
G1 Z10.800 F7800.000
G1 E0.21263 F2400.00000
G92 E0
G1 X106.898 Y100.252 F7800.000
G1 E2.00000 F2400.00000
G1 F600
G1 X106.898 Y99.048 E2.03973
G1 X108.102 Y99.048 E2.07947
G1 X108.102 Y100.252 E2.11920
G1 X106.958 Y100.252 E2.15695
G1 X107.002 Y99.865 F7800.000
G1 E0.15695 F2400.00000
G92 E0
G1 X93.102 Y100.252 F7800.000
G1 E2.00000 F2400.00000
G1 F600
G1 X91.898 Y100.252 E2.03973
G1 X91.898 Y99.048 E2.07947
G1 X93.102 Y99.048 E2.11920
G1 X93.102 Y100.192 E2.15695
G1 X92.715 Y100.148 F7800.000
G1 Z11.000 F7800.000
G1 E0.15695 F2400.00000
G92 E0
G1 X106.912 Y100.238 F7800.000
G1 E2.00000 F2400.00000
G1 F600
G1 X106.912 Y99.062 E2.03881
G1 X108.088 Y99.062 E2.07762
G1 X108.088 Y100.238 E2.11643
G1 X106.972 Y100.238 E2.15326
G1 X107.016 Y99.851 F7800.000
G1 E0.15326 F2400.00000
G92 E0
G1 X93.088 Y100.238 F7800.000
G1 E2.00000 F2400.00000
G1 F600
G1 X91.912 Y100.238 E2.03881
G1 X91.912 Y99.062 E2.07762
G1 X93.088 Y99.062 E2.11643
G1 X93.088 Y100.178 E2.15326
G1 X92.701 Y100.134 F7800.000
G1 Z11.200 F7800.000
G1 E0.15326 F2400.00000
G92 E0
G1 X106.926 Y100.224 F7800.000
G1 E2.00000 F2400.00000
G1 F600
G1 X106.926 Y99.076 E2.03789
G1 X108.074 Y99.076 E2.07577
G1 X108.074 Y100.224 E2.11366
G1 X106.986 Y100.224 E2.14957
G1 X107.030 Y99.837 F7800.000
G1 E0.14957 F2400.00000
G92 E0
G1 X93.074 Y100.224 F7800.000
G1 E2.00000 F2400.00000
G1 F600
G1 X91.926 Y100.224 E2.03789
G1 X91.926 Y99.076 E2.07577
G1 X93.074 Y99.076 E2.11366
G1 X93.074 Y100.164 E2.14957
G1 X92.687 Y100.120 F7800.000
G1 Z11.400 F7800.000
G1 E0.14957 F2400.00000
G92 E0
G1 X106.940 Y100.210 F7800.000
G1 E2.00000 F2400.00000
G1 F600
G1 X106.940 Y99.090 E2.03696
G1 X108.060 Y99.090 E2.07393
G1 X108.060 Y100.210 E2.11089
G1 X107.000 Y100.210 E2.14587
G1 X107.044 Y99.823 F7800.000
G1 E0.14587 F2400.00000
G92 E0
G1 X93.060 Y100.210 F7800.000
G1 E2.00000 F2400.00000
G1 F600
G1 X91.940 Y100.210 E2.03696
G1 X91.940 Y99.090 E2.07393
G1 X93.060 Y99.090 E2.11089
G1 X93.060 Y100.150 E2.14587
G1 X92.673 Y100.106 F7800.000
G1 Z11.600 F7800.000
G1 E0.14587 F2400.00000
G92 E0
G1 X106.954 Y100.196 F7800.000
G1 E2.00000 F2400.00000
G1 F600
G1 X106.954 Y99.104 E2.03604
G1 X108.046 Y99.104 E2.07208
G1 X108.046 Y100.196 E2.10812
G1 X107.014 Y100.196 E2.14218
G1 X107.058 Y99.809 F7800.000
G1 E0.14218 F2400.00000
G92 E0
G1 X93.046 Y100.196 F7800.000
G1 E2.00000 F2400.00000
G1 F600
G1 X91.954 Y100.196 E2.03604
G1 X91.954 Y99.104 E2.07208
G1 X93.046 Y99.104 E2.10812
G1 X93.046 Y100.136 E2.14218
G1 X92.659 Y100.092 F7800.000
G1 Z11.800 F7800.000
G1 E0.14218 F2400.00000
G92 E0
G1 X106.968 Y100.182 F7800.000
G1 E2.00000 F2400.00000
G1 F600
G1 X106.968 Y99.118 E2.03512
G1 X108.032 Y99.118 E2.07023
G1 X108.032 Y100.182 E2.10535
G1 X107.028 Y100.182 E2.13848
G1 X107.072 Y99.795 F7800.000
G1 E0.13848 F2400.00000
G92 E0
G1 X93.032 Y100.182 F7800.000
G1 E2.00000 F2400.00000
G1 F600
G1 X91.968 Y100.182 E2.03512
G1 X91.968 Y99.118 E2.07023
G1 X93.032 Y99.118 E2.10535
G1 X93.032 Y100.122 E2.13848
G1 X92.645 Y100.078 F7800.000
G1 Z12.000 F7800.000
G1 E0.13848 F2400.00000
G92 E0
G1 X106.982 Y100.168 F7800.000
G1 E2.00000 F2400.00000
G1 F600
G1 X106.982 Y99.132 E2.03419
G1 X108.018 Y99.132 E2.06839
G1 X108.018 Y100.168 E2.10258
G1 X107.042 Y100.168 E2.13479
G1 X107.086 Y99.781 F7800.000
G1 E0.13479 F2400.00000
G92 E0
G1 X93.018 Y100.168 F7800.000
G1 E2.00000 F2400.00000
G1 F600
G1 X91.982 Y100.168 E2.03419
G1 X91.982 Y99.132 E2.06839
G1 X93.018 Y99.132 E2.10258
G1 X93.018 Y100.108 E2.13479
G1 X92.631 Y100.064 F7800.000
G1 Z12.200 F7800.000
G1 E0.13479 F2400.00000
G92 E0
G1 X106.996 Y100.154 F7800.000
G1 E2.00000 F2400.00000
G1 F600
G1 X106.996 Y99.146 E2.03327
G1 X108.004 Y99.146 E2.06654
G1 X108.004 Y100.154 E2.09981
G1 X107.056 Y100.154 E2.13110
G1 X107.100 Y99.767 F7800.000
G1 E0.13110 F2400.00000
G92 E0
G1 X93.004 Y100.154 F7800.000
G1 E2.00000 F2400.00000
G1 F600
G1 X91.996 Y100.154 E2.03327
G1 X91.996 Y99.146 E2.06654
G1 X93.004 Y99.146 E2.09981
G1 X93.004 Y100.094 E2.13110
G1 X92.617 Y100.050 F7800.000
G1 Z12.400 F7800.000
G1 E0.13110 F2400.00000
G92 E0
G1 X107.010 Y100.140 F7800.000
G1 E2.00000 F2400.00000
G1 F600
G1 X107.010 Y99.160 E2.03235
G1 X107.990 Y99.160 E2.06469
G1 X107.990 Y100.140 E2.09704
G1 X107.070 Y100.140 E2.12740
G1 X107.114 Y99.753 F7800.000
G1 E0.12740 F2400.00000
G92 E0
G1 X92.990 Y100.140 F7800.000
G1 E2.00000 F2400.00000
G1 F600
G1 X92.010 Y100.140 E2.03235
G1 X92.010 Y99.160 E2.06469
G1 X92.990 Y99.160 E2.09704
G1 X92.990 Y100.080 E2.12740
G1 X92.603 Y100.036 F7800.000
G1 Z12.600 F7800.000
G1 E0.12740 F2400.00000
G92 E0
G1 X107.024 Y100.126 F7800.000
G1 E2.00000 F2400.00000
G1 F600
G1 X107.024 Y99.174 E2.03142
G1 X107.976 Y99.174 E2.06284
G1 X107.976 Y100.126 E2.09427
G1 X107.084 Y100.126 E2.12371
G1 X107.128 Y99.739 F7800.000
G1 E0.12371 F2400.00000
G92 E0
G1 X92.976 Y100.126 F7800.000
G1 E2.00000 F2400.00000
G1 F600
G1 X92.024 Y100.126 E2.03142
G1 X92.024 Y99.174 E2.06284
G1 X92.976 Y99.174 E2.09427
G1 X92.976 Y100.066 E2.12371
G1 X92.589 Y100.022 F7800.000
G1 Z12.800 F7800.000
G1 E0.12371 F2400.00000
G92 E0
G1 X107.038 Y100.112 F7800.000
G1 E2.00000 F2400.00000
G1 F600
G1 X107.038 Y99.188 E2.03050
G1 X107.962 Y99.188 E2.06100
G1 X107.962 Y100.112 E2.09150
G1 X107.098 Y100.112 E2.12001
G1 X107.142 Y99.725 F7800.000
G1 E0.12001 F2400.00000
G92 E0
G1 X92.962 Y100.112 F7800.000
G1 E2.00000 F2400.00000
G1 F600
G1 X92.038 Y100.112 E2.03050
G1 X92.038 Y99.188 E2.06100
G1 X92.962 Y99.188 E2.09150
G1 X92.962 Y100.052 E2.12001
G1 X92.575 Y100.008 F7800.000
G1 Z13.000 F7800.000
G1 E0.12001 F2400.00000
G92 E0
G1 X107.052 Y100.098 F7800.000
G1 E2.00000 F2400.00000
G1 F600
G1 X107.052 Y99.202 E2.02958
G1 X107.948 Y99.202 E2.05915
G1 X107.948 Y100.098 E2.08873
G1 X107.112 Y100.098 E2.11632
G1 X107.156 Y99.712 F7800.000
G1 E0.11632 F2400.00000
G92 E0
G1 X92.948 Y100.098 F7800.000
G1 E2.00000 F2400.00000
G1 F600
G1 X92.052 Y100.098 E2.02957
G1 X92.052 Y99.202 E2.05915
G1 X92.948 Y99.202 E2.08872
G1 X92.948 Y100.038 E2.11632
G1 X92.561 Y99.994 F7800.000
G1 Z13.200 F7800.000
G1 E0.11632 F2400.00000
G92 E0
G1 X107.066 Y100.084 F7800.000
G1 E2.00000 F2400.00000
G1 F600
G1 X107.066 Y99.216 E2.02865
G1 X107.934 Y99.216 E2.05730
G1 X107.934 Y100.084 E2.08596
G1 X107.126 Y100.084 E2.11263
G1 X107.170 Y99.698 F7800.000
G1 E0.11263 F2400.00000
G92 E0
G1 X92.934 Y100.084 F7800.000
G1 E2.00000 F2400.00000
G1 F600
G1 X92.066 Y100.084 E2.02865
G1 X92.066 Y99.216 E2.05730
G1 X92.934 Y99.216 E2.08595
G1 X92.934 Y100.024 E2.11262
G1 X92.548 Y99.980 F7800.000
G1 Z13.400 F7800.000
G1 E0.11262 F2400.00000
G92 E0
G1 X107.080 Y100.070 F7800.000
G1 E2.00000 F2400.00000
G1 F600
G1 X107.080 Y99.230 E2.02773
G1 X107.920 Y99.230 E2.05546
G1 X107.920 Y100.070 E2.08318
G1 X107.140 Y100.070 E2.10893
G1 X107.184 Y99.684 F7800.000
G1 E0.10893 F2400.00000
G92 E0
G1 X92.920 Y100.070 F7800.000
G1 E2.00000 F2400.00000
G1 F600
G1 X92.080 Y100.070 E2.02773
G1 X92.080 Y99.230 E2.05546
G1 X92.920 Y99.230 E2.08318
G1 X92.920 Y100.010 E2.10893
G1 X92.534 Y99.966 F7800.000
G1 Z13.600 F7800.000
G1 E0.10893 F2400.00000
G92 E0
G1 X107.094 Y100.056 F7800.000
G1 E2.00000 F2400.00000
G1 F600
G1 X107.094 Y99.244 E2.02680
G1 X107.906 Y99.244 E2.05361
G1 X107.906 Y100.056 E2.08041
G1 X107.154 Y100.056 E2.10524
G1 X107.198 Y99.670 F7800.000
G1 E0.10524 F2400.00000
G92 E0
G1 X92.906 Y100.056 F7800.000
G1 E2.00000 F2400.00000
G1 F600
G1 X92.094 Y100.056 E2.02680
G1 X92.094 Y99.244 E2.05361
G1 X92.906 Y99.244 E2.08041
G1 X92.906 Y99.996 E2.10524
G1 X92.520 Y99.952 F7800.000
G1 Z13.800 F7800.000
G1 E0.10524 F2400.00000
G92 E0
G1 X107.108 Y100.042 F7800.000
G1 E2.00000 F2400.00000
G1 F600
G1 X107.108 Y99.258 E2.02588
G1 X107.892 Y99.258 E2.05176
G1 X107.892 Y100.042 E2.07764
G1 X107.168 Y100.042 E2.10154
G1 X107.212 Y99.656 F7800.000
G1 E0.10154 F2400.00000
G92 E0
G1 X92.892 Y100.042 F7800.000
G1 E2.00000 F2400.00000
G1 F600
G1 X92.108 Y100.042 E2.02588
G1 X92.108 Y99.258 E2.05176
G1 X92.892 Y99.258 E2.07764
G1 X92.892 Y99.982 E2.10154
G1 X92.506 Y99.938 F7800.000
G1 Z14.000 F7800.000
G1 E0.10154 F2400.00000
G92 E0
G1 X107.122 Y100.028 F7800.000
G1 E2.00000 F2400.00000
G1 F600
G1 X107.122 Y99.272 E2.02496
G1 X107.878 Y99.272 E2.04992
G1 X107.878 Y100.028 E2.07487
G1 X107.182 Y100.028 E2.09785
G1 X107.226 Y99.642 F7800.000
G1 E0.09785 F2400.00000
G92 E0
G1 X92.878 Y100.028 F7800.000
G1 E2.00000 F2400.00000
G1 F600
G1 X92.122 Y100.028 E2.02496
G1 X92.122 Y99.272 E2.04991
G1 X92.878 Y99.272 E2.07487
G1 X92.878 Y99.968 E2.09785
G1 X92.492 Y99.924 F7800.000
G1 Z14.200 F7800.000
G1 E0.09785 F2400.00000
G92 E0
G1 X107.136 Y100.014 F7800.000
G1 E2.00000 F2400.00000
G1 F600
G1 X107.136 Y99.286 E2.02403
G1 X107.864 Y99.286 E2.04807
G1 X107.864 Y100.014 E2.07210
G1 X107.196 Y100.014 E2.09416
G1 X107.240 Y99.628 F7800.000
G1 E0.09416 F2400.00000
G92 E0
G1 X92.864 Y100.014 F7800.000
G1 E2.00000 F2400.00000
G1 F600
G1 X92.136 Y100.014 E2.02403
G1 X92.136 Y99.286 E2.04807
G1 X92.864 Y99.286 E2.07210
G1 X92.864 Y99.954 E2.09415
G1 X92.478 Y99.910 F7800.000
G1 Z14.400 F7800.000
G1 E0.09415 F2400.00000
G92 E0
G1 X107.150 Y100.000 F7800.000
G1 E2.00000 F2400.00000
G1 F600
G1 X107.150 Y99.300 E2.02311
G1 X107.850 Y99.300 E2.04622
G1 X107.850 Y100.000 E2.06933
G1 X107.210 Y100.000 E2.09046
G1 X107.254 Y99.614 F7800.000
G1 E0.09046 F2400.00000
G92 E0
G1 X92.850 Y100.000 F7800.000
G1 E2.00000 F2400.00000
G1 F600
G1 X92.150 Y100.000 E2.02311
G1 X92.150 Y99.300 E2.04622
G1 X92.850 Y99.300 E2.06933
G1 X92.850 Y99.940 E2.09046
G1 X92.464 Y99.896 F7800.000
G1 Z14.600 F7800.000
G1 E0.09046 F2400.00000
G92 E0
G1 X107.164 Y99.986 F7800.000
G1 E2.00000 F2400.00000
G1 F600
G1 X107.164 Y99.314 E2.02219
G1 X107.836 Y99.314 E2.04437
G1 X107.836 Y99.986 E2.06656
G1 X107.224 Y99.986 E2.08677
G1 X107.268 Y99.600 F7800.000
G1 E0.08677 F2400.00000
G92 E0
G1 X92.836 Y99.986 F7800.000
G1 E2.00000 F2400.00000
G1 F600
G1 X92.164 Y99.986 E2.02219
G1 X92.164 Y99.314 E2.04437
G1 X92.836 Y99.314 E2.06656
G1 X92.836 Y99.926 E2.08677
G1 X92.450 Y99.882 F7800.000
G1 Z14.800 F7800.000
G1 E0.08677 F2400.00000
G92 E0
G1 X107.178 Y99.972 F7800.000
G1 E2.00000 F2400.00000
G1 F600
G1 X107.178 Y99.328 E2.02126
G1 X107.822 Y99.328 E2.04253
G1 X107.822 Y99.972 E2.06379
G1 X107.238 Y99.972 E2.08307
G1 X107.282 Y99.586 F7800.000
G1 E0.08307 F2400.00000
G92 E0
G1 X92.822 Y99.972 F7800.000
G1 E2.00000 F2400.00000
G1 F600
G1 X92.178 Y99.972 E2.02126
G1 X92.178 Y99.328 E2.04253
G1 X92.822 Y99.328 E2.06379
G1 X92.822 Y99.912 E2.08307
G1 X92.436 Y99.868 F7800.000
G1 Z15.000 F7800.000
G1 E0.08307 F2400.00000
G92 E0
G1 X107.192 Y99.958 F7800.000
G1 E2.00000 F2400.00000
G1 F600
G1 X107.192 Y99.342 E2.02034
G1 X107.808 Y99.342 E2.04068
G1 X107.808 Y99.958 E2.06102
G1 X107.252 Y99.958 E2.07938
G1 X107.296 Y99.572 F7800.000
G1 E0.07938 F2400.00000
G92 E0
G1 X92.808 Y99.958 F7800.000
G1 E2.00000 F2400.00000
G1 F600
G1 X92.192 Y99.958 E2.02034
G1 X92.192 Y99.342 E2.04068
G1 X92.808 Y99.342 E2.06102
G1 X92.808 Y99.898 E2.07938
G1 X92.422 Y99.854 F7800.000
G1 Z15.200 F7800.000
G1 E0.07938 F2400.00000
G92 E0
G1 X107.206 Y99.944 F7800.000
G1 E2.00000 F2400.00000
G1 F600
G1 X107.206 Y99.356 E2.01942
G1 X107.794 Y99.356 E2.03883
G1 X107.794 Y99.944 E2.05825
G1 X107.266 Y99.944 E2.07569
G1 X107.309 Y99.558 F7800.000
G1 E0.07569 F2400.00000
G92 E0
G1 X92.794 Y99.944 F7800.000
G1 E2.00000 F2400.00000
G1 F600
G1 X92.206 Y99.944 E2.01942
G1 X92.206 Y99.356 E2.03883
G1 X92.794 Y99.356 E2.05825
G1 X92.794 Y99.884 E2.07568
G1 X92.408 Y99.841 F7800.000
G1 Z15.400 F7800.000
G1 E0.07568 F2400.00000
G92 E0
G1 X107.220 Y99.930 F7800.000
G1 E2.00000 F2400.00000
G1 F600
G1 X107.220 Y99.370 E2.01849
G1 X107.780 Y99.370 E2.03699
G1 X107.780 Y99.930 E2.05548
G1 X107.280 Y99.930 E2.07199
G1 X107.323 Y99.544 F7800.000
G1 E0.07199 F2400.00000
G92 E0
G1 X92.780 Y99.930 F7800.000
G1 E2.00000 F2400.00000
G1 F600
G1 X92.220 Y99.930 E2.01849
G1 X92.220 Y99.370 E2.03699
G1 X92.780 Y99.370 E2.05548
G1 X92.780 Y99.870 E2.07199
G1 X92.394 Y99.827 F7800.000
G1 Z15.600 F7800.000
G1 E0.07199 F2400.00000
G92 E0
G1 X107.234 Y99.916 F7800.000
G1 E2.00000 F2400.00000
G1 F600
G1 X107.234 Y99.384 E2.01757
G1 X107.766 Y99.384 E2.03514
G1 X107.766 Y99.916 E2.05271
G1 X107.294 Y99.916 E2.06830
G1 X107.337 Y99.530 F7800.000
G1 E0.06830 F2400.00000
G92 E0
G1 X92.766 Y99.916 F7800.000
G1 E2.00000 F2400.00000
G1 F600
G1 X92.234 Y99.916 E2.01757
G1 X92.234 Y99.384 E2.03514
G1 X92.766 Y99.384 E2.05271
G1 X92.766 Y99.856 E2.06830
G1 X92.380 Y99.813 F7800.000
G1 Z15.800 F7800.000
G1 E0.06830 F2400.00000
G92 E0
G1 X107.248 Y99.902 F7800.000
G1 E2.00000 F2400.00000
G1 F600
G1 X107.248 Y99.398 E2.01665
G1 X107.752 Y99.398 E2.03329
G1 X107.752 Y99.902 E2.04994
G1 X107.308 Y99.902 E2.06460
G1 X107.351 Y99.516 F7800.000
G1 E0.06460 F2400.00000
G92 E0
G1 X92.752 Y99.902 F7800.000
G1 E2.00000 F2400.00000
G1 F600
G1 X92.248 Y99.902 E2.01665
G1 X92.248 Y99.398 E2.03329
G1 X92.752 Y99.398 E2.04994
G1 X92.752 Y99.842 E2.06460
G1 X92.366 Y99.799 F7800.000
G1 Z16.000 F7800.000
G1 E0.06460 F2400.00000
G92 E0
G1 X107.262 Y99.888 F7800.000
G1 E2.00000 F2400.00000
G1 F600
G1 X107.262 Y99.412 E2.01572
G1 X107.738 Y99.412 E2.03145
G1 X107.738 Y99.888 E2.04717
G1 X107.322 Y99.888 E2.06091
G1 X107.365 Y99.502 F7800.000
G1 E0.06091 F2400.00000
G92 E0
G1 X92.738 Y99.888 F7800.000
G1 E2.00000 F2400.00000
G1 F600
G1 X92.262 Y99.888 E2.01572
G1 X92.262 Y99.412 E2.03144
G1 X92.738 Y99.412 E2.04717
G1 X92.738 Y99.828 E2.06091
G1 X92.352 Y99.785 F7800.000
G1 Z16.200 F7800.000
G1 E0.06091 F2400.00000
G92 E0
G1 X107.276 Y99.874 F7800.000
G1 E2.00000 F2400.00000
G1 F600
G1 X107.276 Y99.426 E2.01480
G1 X107.724 Y99.426 E2.02960
G1 X107.724 Y99.874 E2.04440
G1 X107.336 Y99.874 E2.05722
G1 X107.379 Y99.488 F7800.000
G1 E0.05722 F2400.00000
G92 E0
G1 X92.724 Y99.874 F7800.000
G1 E2.00000 F2400.00000
G1 F600
G1 X92.276 Y99.874 E2.01480
G1 X92.276 Y99.426 E2.02960
G1 X92.724 Y99.426 E2.04440
G1 X92.724 Y99.814 E2.05721
G1 X92.338 Y99.771 F7800.000
G1 Z16.400 F7800.000
G1 E0.05721 F2400.00000
G92 E0
G1 X107.290 Y99.860 F7800.000
G1 E2.00000 F2400.00000
G1 F600
G1 X107.290 Y99.440 E2.01388
G1 X107.710 Y99.440 E2.02775
G1 X107.710 Y99.860 E2.04163
G1 X107.350 Y99.860 E2.05352
G1 X107.393 Y99.474 F7800.000
G1 E0.05352 F2400.00000
G92 E0
G1 X92.710 Y99.860 F7800.000
G1 E2.00000 F2400.00000
G1 F600
G1 X92.290 Y99.860 E2.01388
G1 X92.290 Y99.440 E2.02775
G1 X92.710 Y99.440 E2.04163
G1 X92.710 Y99.800 E2.05352
G1 X92.324 Y99.757 F7800.000
G1 Z16.600 F7800.000
G1 E0.05352 F2400.00000
G92 E0
G1 X107.304 Y99.846 F7800.000
G1 E2.00000 F2400.00000
G1 F600
G1 X107.304 Y99.454 E2.01295
G1 X107.696 Y99.454 E2.02590
G1 X107.696 Y99.846 E2.03886
G1 X107.364 Y99.846 E2.04983
G1 X107.405 Y99.467 F7800.000
G1 E0.04983 F2400.00000
G92 E0
G1 X92.696 Y99.846 F7800.000
G1 E2.00000 F2400.00000
G1 F600
G1 X92.304 Y99.846 E2.01295
G1 X92.304 Y99.454 E2.02590
G1 X92.696 Y99.454 E2.03885
G1 X92.696 Y99.786 E2.04983
G1 X92.317 Y99.745 F7800.000
G1 Z16.800 F7800.000
G1 E0.04983 F2400.00000
G92 E0
G1 X107.318 Y99.832 F7800.000
G1 E2.00000 F2400.00000
G1 F600
G1 X107.318 Y99.468 E2.01203
G1 X107.682 Y99.468 E2.02406
G1 X107.682 Y99.832 E2.03609
G1 X107.378 Y99.832 E2.04613
G1 X107.412 Y99.480 F7800.000
G1 E0.04613 F2400.00000
G92 E0
G1 X92.682 Y99.832 F7800.000
G1 E2.00000 F2400.00000
G1 F600
G1 X92.318 Y99.832 E2.01203
G1 X92.318 Y99.468 E2.02406
G1 X92.682 Y99.468 E2.03608
G1 X92.682 Y99.772 E2.04613
G1 X92.330 Y99.738 F7800.000
G1 Z17.000 F7800.000
G1 E0.04613 F2400.00000
G92 E0
G1 X107.332 Y99.818 F7800.000
G1 E2.00000 F2400.00000
G1 F600
G1 X107.332 Y99.482 E2.01110
G1 X107.668 Y99.482 E2.02221
G1 X107.668 Y99.818 E2.03331
G1 X107.392 Y99.818 E2.04244
G1 X107.419 Y99.493 F7800.000
G1 E0.04244 F2400.00000
G92 E0
G1 X92.668 Y99.818 F7800.000
G1 E2.00000 F2400.00000
G1 F600
G1 X92.332 Y99.818 E2.01110
G1 X92.332 Y99.482 E2.02221
G1 X92.668 Y99.482 E2.03331
G1 X92.668 Y99.758 E2.04244
G1 X92.343 Y99.731 F7800.000
G1 Z17.200 F7800.000
G1 E0.04244 F2400.00000
G92 E0
G1 X107.346 Y99.804 F7800.000
G1 E2.00000 F2400.00000
G1 F600
G1 X107.346 Y99.496 E2.01018
G1 X107.654 Y99.496 E2.02036
G1 X107.654 Y99.804 E2.03054
G1 X107.406 Y99.804 E2.03874
G1 X107.426 Y99.506 F7800.000
G1 E0.03874 F2400.00000
G92 E0
G1 X92.654 Y99.804 F7800.000
G1 E2.00000 F2400.00000
G1 F600
G1 X92.346 Y99.804 E2.01018
G1 X92.346 Y99.496 E2.02036
G1 X92.654 Y99.496 E2.03054
G1 X92.654 Y99.744 E2.03874
G1 X92.356 Y99.724 F7800.000
G1 Z17.400 F7800.000
G1 E0.03874 F2400.00000
G92 E0
G1 X107.360 Y99.790 F7800.000
G1 E2.00000 F2400.00000
G1 F600
G1 X107.360 Y99.510 E2.00926
G1 X107.640 Y99.510 E2.01852
G1 X107.640 Y99.790 E2.02777
G1 X107.420 Y99.790 E2.03505
G1 X107.360 Y99.790 F7800.000
G1 E0.03505 F2400.00000
G92 E0
G1 X92.640 Y99.790 F7800.000
G1 E2.00000 F2400.00000
G1 F600
G1 X92.360 Y99.790 E2.00926
G1 X92.360 Y99.510 E2.01852
G1 X92.640 Y99.510 E2.02777
G1 X92.640 Y99.730 E2.03505
G1 X92.369 Y99.718 F7800.000
G1 Z17.600 F7800.000
G1 E0.03505 F2400.00000
G92 E0
G1 X107.374 Y99.776 F7800.000
G1 E2.00000 F2400.00000
G1 F600
G1 X107.374 Y99.524 E2.00833
G1 X107.626 Y99.524 E2.01667
G1 X107.626 Y99.776 E2.02500
G1 X107.434 Y99.776 E2.03136
G1 X107.374 Y99.776 F7800.000
G1 E0.03136 F2400.00000
G92 E0
G1 X92.626 Y99.776 F7800.000
G1 E2.00000 F2400.00000
G1 F600
G1 X92.374 Y99.776 E2.00833
G1 X92.374 Y99.524 E2.01667
G1 X92.626 Y99.524 E2.02500
G1 X92.626 Y99.716 E2.03136
G1 X92.382 Y99.711 F7800.000
G1 Z17.800 F7800.000
G1 Z18.000 F7800.000
G1 Z18.200 F7800.000
G1 Z18.400 F7800.000
G1 Z18.600 F7800.000
G1 Z18.800 F7800.000
G1 Z19.000 F7800.000
G1 Z19.200 F7800.000
G1 Z19.400 F7800.000
G1 Z19.600 F7800.000
G1 Z19.800 F7800.000
G1 Z20.000 F7800.000
G1 E0.03136 F2400.00000
G92 E0
M107
; Filament-specific end gcode 
;END gcode for filament

G1 E-3.00 F2400.00 ; Retract 
M104 S0 ; turn off temperature
M140 S0 ; turn off bed temperature
G27  ; Park 
M84     ; disable motors

; filament used = 116.8mm (0.3cm3)
; total filament cost = 0.0

; avoid_crossing_perimeters = 0
; bed_shape = 0x0,200x0,200x200,0x200
; bed_temperature = 70
; before_layer_gcode = 
; between_objects_gcode = 
; bridge_acceleration = 0
; bridge_fan_speed = 100
; brim_connections_width = 0
; brim_width = 0
; complete_objects = 0
; cooling = 1
; default_acceleration = 0
; disable_fan_first_layers = 2
; duplicate_distance = 6
; end_filament_gcode = "; Filament-specific end gcode \n;END gcode for filament\n"
; end_gcode = G1 E-3.00 F2400.00 ; Retract \nM104 S0 ; turn off temperature\nM140 S0 ; turn off bed temperature\nG27  ; Park \nM84     ; disable motors\n
; extruder_clearance_height = 20
; extruder_clearance_radius = 20
; extruder_offset = 0x0
; extrusion_axis = E
; extrusion_multiplier = 1
; fan_always_on = 0
; fan_below_layer_time = 60
; filament_colour = #FFFFFF
; filament_cost = 0
; filament_density = 0
; filament_diameter = 1.75
; filament_max_volumetric_speed = 0
; filament_notes = ""
; first_layer_acceleration = 0
; first_layer_bed_temperature = 70
; first_layer_extrusion_width = 130%
; first_layer_speed = 30
; first_layer_temperature = 230
; gcode_arcs = 0
; gcode_comments = 0
; gcode_flavor = reprap
; has_heatbed = 1
; infill_acceleration = 0
; infill_first = 0
; interior_brim_width = 0
; layer_gcode = 
; max_fan_speed = 100
; max_layer_height = 0.3
; max_print_speed = 80
; max_volumetric_speed = 0
; min_fan_speed = 100
; min_layer_height = 0.15
; min_print_speed = 10
; min_skirt_length = 0
; notes = 
; nozzle_diameter = 0.4
; only_retract_when_crossing_perimeters = 1
; ooze_prevention = 0
; output_filename_format = [input_filename_base].gcode
; perimeter_acceleration = 0
; post_process = 
; pressure_advance = 0
; printer_notes = 
; resolution = 0
; retract_before_travel = 2
; retract_layer_change = 0
; retract_length = 2
; retract_length_toolchange = 10
; retract_lift = 0
; retract_lift_above = 0
; retract_lift_below = 0
; retract_restart_extra = 0
; retract_restart_extra_toolchange = 0
; retract_speed = 40
; skirt_distance = 6
; skirt_height = 1
; skirts = 3
; slowdown_below_layer_time = 5
; spiral_vase = 0
; standby_temperature_delta = -5
; start_filament_gcode = "; Filament gcode\n"
; start_gcode = G28 ; Home\nG1 Z5 F5000 ; lift nozzle\nG1 X1 Y1 F2000\n
; temperature = 230
; threads = 24
; toolchange_gcode = 
; travel_speed = 130
; use_firmware_retraction = 0
; use_relative_e_distances = 0
; use_set_and_wait_bed = 0
; use_set_and_wait_extruder = 0
; use_volumetric_e = 0
; vibration_limit = 0
; wipe = 0
; z_offset = 0
; z_steps_per_mm = 0
; adaptive_slicing = 0
; adaptive_slicing_quality = 75%
; dont_support_bridges = 1
; extrusion_width = 0
; first_layer_height = 0.4
; infill_only_where_needed = 0
; interface_shells = 0
; layer_height = 0.2
; match_horizontal_surfaces = 0
; raft_layers = 0
; regions_overlap = 0
; seam_position = aligned
; sequential_print_priority = 0
; support_material = 0
; support_material_angle = 0
; support_material_buildplate_only = 0
; support_material_contact_distance = 0.2
; support_material_enforce_layers = 0
; support_material_extruder = 1
; support_material_extrusion_width = 0
; support_material_interface_extruder = 1
; support_material_interface_extrusion_width = 0
; support_material_interface_layers = 3
; support_material_interface_spacing = 0
; support_material_interface_speed = 100%
; support_material_max_layers = 0
; support_material_pattern = pillars
; support_material_spacing = 2.5
; support_material_speed = 60
; support_material_threshold = 60%
; xy_size_compensation = 0
; bottom_infill_pattern = rectilinear
; bottom_solid_layers = 3
; bridge_flow_ratio = 1
; bridge_speed = 15
; external_perimeter_extrusion_width = 0
; external_perimeter_speed = 50%
; external_perimeters_first = 0
; extra_perimeters = 1
; fill_angle = 45
; fill_density = 20%
; fill_gaps = 1
; fill_pattern = stars
; gap_fill_speed = 20
; infill_every_layers = 1
; infill_extruder = 1
; infill_extrusion_width = 0
; infill_overlap = 65%
; infill_speed = 80
; overhangs = 1
; perimeter_extruder = 1
; perimeter_extrusion_width = 0
; perimeter_speed = 60
; perimeters = 3
; small_perimeter_speed = 15
; solid_infill_below_area = 70
; solid_infill_every_layers = 0
; solid_infill_extruder = 1
; solid_infill_extrusion_width = 0
; solid_infill_speed = 20
; thin_walls = 1
; top_infill_extrusion_width = 125%
; top_infill_pattern = rectilinear
; top_solid_infill_speed = 15
; top_solid_layers = 4
